[gd_scene load_steps=6 format=2]

[ext_resource path="res://world/ship/SpaceShip.tscn" type="PackedScene" id=1]
[ext_resource path="res://state/faction/PirateFactionState.tscn" type="PackedScene" id=2]
[ext_resource path="res://world/ship/light/Light.tscn" type="PackedScene" id=3]
[ext_resource path="res://actor/brain/ShipBrain.tscn" type="PackedScene" id=4]
[ext_resource path="res://material/ship/PirateShip.tres" type="Material" id=5]

[node name="PirateShip" type="Spatial"]

[node name="ShipBrain" parent="." instance=ExtResource( 4 )]
driver_path = NodePath("../SpaceShip/Driver")

[node name="FactionState" parent="." instance=ExtResource( 2 )]

[node name="SpaceShip" parent="." instance=ExtResource( 1 )]

[node name="MeshInstance" parent="SpaceShip/Driver" index="1"]
material/0 = ExtResource( 5 )

[node name="Light" parent="SpaceShip/Driver" index="6" instance=ExtResource( 3 )]
transform = Transform( 1, 0, 0, 0, 1, 0, 0, 0, 1, 1.473, 0.105737, 0.463057 )

[node name="Light2" parent="SpaceShip/Driver" index="7" instance=ExtResource( 3 )]
transform = Transform( 1, 0, 0, 0, 1, 0, 0, 0, 1, -1.473, 0.106, 0.463 )

[connection signal="detect" from="SpaceShip/Driver/Radar" to="ShipBrain" method="_on_Radar_detect"]
[connection signal="lose" from="SpaceShip/Driver/Radar" to="ShipBrain" method="_on_Radar_lose"]

[editable path="SpaceShip"]
[editable path="SpaceShip/Driver/Radar"]
