# Blender 3.5.0 MTL File: 'Medieval.blend'
# www.blender.org

newmtl Metal
Ns 333.243774
Ka 1.000000 1.000000 1.000000
Kd 0.045436 0.045436 0.045436
Ks 0.595455 0.595455 0.595455
Ke 0.000000 0.000000 0.000000
Ni 1.450000
d 1.000000
illum 3

newmtl Rope
Ns 250.000000
Ka 0.486364 0.486364 0.486364
Kd 0.057191 0.009434 0.000000
Ks 0.127273 0.127273 0.127273
Ke 0.000000 0.000000 0.000000
Ni 1.450000
d 1.000000
illum 3

newmtl Stone
Ns 250.000000
Ka 1.000000 1.000000 1.000000
Kd 0.071928 0.071928 0.071928
Ks 0.500000 0.500000 0.500000
Ke 0.000000 0.000000 0.000000
Ni 1.450000
d 1.000000
illum 2

newmtl WoodLight
Ns 0.000000
Ka 1.000000 1.000000 1.000000
Kd 0.122183 0.041458 0.008034
Ks 0.281818 0.281818 0.281818
Ke 0.000000 0.000000 0.000000
Ni 1.450000
d 1.000000
illum 2
