# Blender 3.5.0 MTL File: 'Medieval.blend'
# www.blender.org

newmtl Roof
Ns 138.925613
Ka 1.000000 1.000000 1.000000
Kd 0.106038 0.077314 0.036971
Ks 0.204545 0.204545 0.204545
Ke 0.000000 0.000000 0.000000
Ni 1.450000
d 1.000000
illum 2

newmtl Wood
Ns 0.000000
Ka 1.000000 1.000000 1.000000
Kd 0.023181 0.007899 0.000858
Ks 0.254545 0.254545 0.254545
Ke 0.000000 0.000000 0.000000
Ni 1.450000
d 1.000000
illum 2

newmtl WoodPainted
Ns 250.000000
Ka 1.000000 1.000000 1.000000
Kd 0.486735 0.343191 0.170553
Ks 0.545455 0.545455 0.545455
Ke 0.000000 0.000000 0.000000
Ni 1.450000
d 1.000000
illum 2
