[gd_scene load_steps=8 format=2]

[ext_resource path="res://font/Forum/Forum-Regular.ttf" type="DynamicFontData" id=1]
[ext_resource path="res://ui/journal/quest/JournalButton.tscn" type="PackedScene" id=2]
[ext_resource path="res://ui/journal/quest/PageListTitle.gd" type="Script" id=3]

[sub_resource type="DynamicFont" id=4]
size = 32
font_data = ExtResource( 1 )

[sub_resource type="StyleBoxEmpty" id=1]

[sub_resource type="StyleBoxEmpty" id=2]

[sub_resource type="StyleBoxEmpty" id=3]

[node name="PageListTitle" type="HSplitContainer"]
margin_right = 40.0
margin_bottom = 40.0
dragger_visibility = 2
script = ExtResource( 3 )
__meta__ = {
"_edit_use_anchors_": false
}

[node name="TitleButton" type="Button" parent="."]
margin_right = 20.0
margin_bottom = 50.0
rect_min_size = Vector2( 0, 50 )
mouse_default_cursor_shape = 2
size_flags_horizontal = 3
size_flags_vertical = 3
custom_colors/font_color_disabled = Color( 0, 0, 0, 1 )
custom_colors/font_color = Color( 0, 0, 0, 1 )
custom_colors/font_color_hover = Color( 0, 0, 0, 1 )
custom_colors/font_color_pressed = Color( 0, 0, 0, 1 )
custom_fonts/font = SubResource( 4 )
custom_styles/hover = SubResource( 1 )
custom_styles/pressed = SubResource( 2 )
custom_styles/normal = SubResource( 3 )
text = "SomeTitle"
__meta__ = {
"_edit_use_anchors_": false
}

[node name="ArchiveButton" parent="." instance=ExtResource( 2 )]
margin_left = 20.0
margin_bottom = 50.0
text = "A"

[connection signal="pressed" from="TitleButton" to="." method="_on_TitleButton_pressed"]
[connection signal="pressed" from="ArchiveButton" to="." method="_on_ArchiveButton_pressed"]
