[gd_scene load_steps=5 format=2]

[ext_resource path="res://Shelter/House/House.gd" type="Script" id=1]

[sub_resource type="SpatialMaterial" id=1]
albedo_color = Color( 0.45098, 0.305882, 0.0823529, 1 )

[sub_resource type="CubeMesh" id=2]
material = SubResource( 1 )
size = Vector3( 4, 4, 4 )

[sub_resource type="BoxShape" id=3]
extents = Vector3( 2, 2, 2 )

[node name="House" type="StaticBody" groups=[
"shelter",
]]
transform = Transform( 1, 0, 0, 0, 1, 0, 0, 0, 1, 0, 2, 0 )
script = ExtResource( 1 )

[node name="MeshInstance" type="MeshInstance" parent="."]
mesh = SubResource( 2 )
material/0 = null

[node name="CollisionShape" type="CollisionShape" parent="."]
shape = SubResource( 3 )
