# Blender MTL File: 'planet.blend'
# Material Count: 3

newmtl Core
Ns 225.000000
Ka 1.000000 1.000000 1.000000
Kd 0.800000 0.000000 0.000374
Ks 0.500000 0.500000 0.500000
Ke 0.000000 0.000000 0.000000
Ni 1.450000
d 1.000000
illum 2

newmtl Rim
Ns 225.000000
Ka 1.000000 1.000000 1.000000
Kd 0.800000 0.191025 0.000000
Ks 0.500000 0.500000 0.500000
Ke 0.000000 0.000000 0.000000
Ni 1.450000
d 1.000000
illum 2

newmtl Surface
Ns 225.000000
Ka 1.000000 1.000000 1.000000
Kd 0.000000 0.800000 0.012870
Ks 0.500000 0.500000 0.500000
Ke 0.000000 0.000000 0.000000
Ni 1.450000
d 1.000000
illum 2
