[gd_scene load_steps=2 format=2]

[ext_resource path="res://handler/holder/HolderHandler.gd" type="Script" id=1]

[node name="HolderHandler" type="Spatial"]
script = ExtResource( 1 )
__meta__ = {
"_editor_description_": "Decides which ways an actor should hold certain items."
}
