[gd_scene load_steps=7 format=2]

[sub_resource type="CubeMesh" id=1]
size = Vector3( 0.08, 0.08, 0.08 )

[sub_resource type="SpatialMaterial" id=2]
albedo_color = Color( 0.839216, 0.827451, 0.752941, 1 )

[sub_resource type="CubeMesh" id=3]
material = SubResource( 2 )
size = Vector3( 0.05, 0.05, 0.05 )

[sub_resource type="SpatialMaterial" id=4]
albedo_color = Color( 0.976471, 0.85098, 0.0196078, 1 )

[sub_resource type="CubeMesh" id=5]
material = SubResource( 4 )
size = Vector3( 0.1, 0.01, 0.125 )

[sub_resource type="CubeMesh" id=6]
material = SubResource( 4 )
size = Vector3( 0.085, 0.03, 0.085 )

[node name="PersonHead" type="Spatial"]

[node name="MeshInstance" type="MeshInstance" parent="."]
mesh = SubResource( 1 )
material/0 = null

[node name="MeshInstance2" type="MeshInstance" parent="."]
transform = Transform( 1, 0, 0, 0, 1, 0, 0, 0, 1, 0, 0, -0.0230213 )
mesh = SubResource( 3 )
material/0 = null

[node name="MeshInstance3" type="MeshInstance" parent="."]
transform = Transform( 1, 0, 0, 0, 1, 0, 0, 0, 1, 0, 0.0397309, -0.0139583 )
mesh = SubResource( 5 )
material/0 = null

[node name="MeshInstance4" type="MeshInstance" parent="."]
transform = Transform( 1, 0, 0, 0, 1, 0, 0, 0, 1, 0, 0.052257, -0.000918463 )
mesh = SubResource( 6 )
material/0 = null
