[gd_scene load_steps=4 format=2]

[ext_resource path="res://mesh/castle.obj" type="ArrayMesh" id=1]
[ext_resource path="res://world/Castle.gd" type="Script" id=2]
[ext_resource path="res://material/Stone.tres" type="Material" id=3]

[node name="Castle" type="MeshInstance3D"]
mesh = ExtResource( 1 )
material/0 = ExtResource( 3 )
material/1 = ExtResource( 3 )
material/2 = ExtResource( 3 )
material/3 = ExtResource( 3 )
material/4 = ExtResource( 3 )
script = ExtResource( 2 )
