[gd_scene load_steps=4 format=2]

[ext_resource path="res://mesh/crate.obj" type="ArrayMesh" id=1]
[ext_resource path="res://material/Wood.tres" type="Material" id=2]

[sub_resource type="ConvexPolygonShape3D" id=1]
points = PackedVector3Array( 0.5, 0.5, 0.5, 0.5, -0.5, 0.5, 0.5, 0.5, -0.5, -0.5, 0.5, 0.5, 0.5, -0.5, -0.5, -0.5, -0.5, 0.5, -0.5, 0.5, -0.5, -0.5, -0.5, -0.5 )

[node name="Crate" type="RigidBody3D"]
mode = 1
mass = 10.0

[node name="MeshInstance3D" type="MeshInstance3D" parent="."]
mesh = ExtResource( 1 )
material/0 = ExtResource( 2 )
material/1 = ExtResource( 2 )

[node name="CollisionShape3D" type="CollisionShape3D" parent="."]
shape = SubResource( 1 )
