[gd_scene load_steps=3 format=2]

[ext_resource path="res://World/FBM/TerrainCell.tscn" type="PackedScene" id=3]
[ext_resource path="res://Controller/Plane/PlaneController.tscn" type="PackedScene" id=4]

[node name="FlyScene" type="Spatial"]

[node name="PlaneController" parent="." instance=ExtResource( 4 )]
transform = Transform( 1, 0, 0, 0, 1, -1.74846e-07, 0, 1.74846e-07, 1, 18, 4, 0 )

[node name="TerrainCell" parent="." instance=ExtResource( 3 )]
transform = Transform( 1, 0, 0, 0, 1, 0, 0, 0, 1, 0, -4.47655, 0 )

[node name="DirectionalLight" type="DirectionalLight" parent="."]
transform = Transform( 0.866025, 0.353554, -0.353553, -0.312124, 0.934683, 0.170138, 0.390613, -0.0369913, 0.919811, 0, 19, 0 )
light_energy = 1.3
shadow_enabled = true

[connection signal="moved" from="PlaneController" to="TerrainCell" method="_on_PlaneController_moved"]
