[gd_scene load_steps=3 format=2]

[ext_resource path="res://mesh/house_c.obj" type="ArrayMesh" id=1]

[sub_resource type="ConcavePolygonShape3D" id=1]
data = PackedVector3Array( 2, 8, 3, 0, 8, 3, 2, 9, 3, 2, 9, 3, 0, 8, 3, 0, 9, 3, 2, 8, -1, 4, 8, -1, 2, 9, -1, 2, 9, -1, 4, 8, -1, 4, 9, -1, 0, 8, -1, 2, 8, -1, 0, 9, -1, 0, 9, -1, 2, 8, -1, 2, 9, -1, 4, 8, 1, 4, 8, 3, 4, 9, 1, 4, 9, 1, 4, 8, 3, 4, 9, 3, -2, 8, -1, 0, 8, -1, -2, 9, -1, -2, 9, -1, 0, 8, -1, 0, 9, -1, 4, 8, -1, 4, 8, 1, 4, 9, -1, 4, 9, -1, 4, 8, 1, 4, 9, 1, -2, 8, 1, -2, 8, -1, -2, 9, 1, -2, 9, 1, -2, 8, -1, -2, 9, -1, -2, 8, 3, -2, 8, 1, -2, 9, 3, -2, 9, 3, -2, 8, 1, -2, 9, 1, 4, 8, 3, 2, 8, 3, 4, 9, 3, 4, 9, 3, 2, 8, 3, 2, 9, 3, 0, 8, 3, -2, 8, 3, 0, 9, 3, 0, 9, 3, -2, 8, 3, -2, 9, 3, 0, 6.1, 3, -2, 6.1, 3, 0, 7.1, 3, 0, 7.1, 3, -2, 6.1, 3, -2, 7.1, 3, 4, 6.1, 3, 2, 6.1, 3, 4, 7.1, 3, 4, 7.1, 3, 2, 6.1, 3, 2, 7.1, 3, -2, 6.1, 3, -2, 6.1, 1, -2, 7.1, 3, -2, 7.1, 3, -2, 6.1, 1, -2, 7.1, 1, -2, 6.1, 1, -2, 6.1, -1, -2, 7.1, 1, -2, 7.1, 1, -2, 6.1, -1, -2, 7.1, -1, 4, 6.1, -1, 4, 6.1, 1, 4, 7.1, -1, 4, 7.1, -1, 4, 6.1, 1, 4, 7.1, 1, -2, 6.1, -1, 0, 6.1, -1, -2, 7.1, -1, -2, 7.1, -1, 0, 6.1, -1, 0, 7.1, -1, 4, 6.1, 1, 4, 6.1, 3, 4, 7.1, 1, 4, 7.1, 1, 4, 6.1, 3, 4, 7.1, 3, 2, 6.1, -1, 4, 6.1, -1, 2, 7.1, -1, 2, 7.1, -1, 4, 6.1, -1, 4, 7.1, -1, 2, 6.1, 3, 0, 6.1, 3, 2, 7.1, 3, 2, 7.1, 3, 0, 6.1, 3, 0, 7.1, 3, 0, 7.1, 3, -2, 7.1, 3, 0, 8, 3, 0, 8, 3, -2, 7.1, 3, -2, 8, 3, 4, 7.1, 3, 2, 7.1, 3, 4, 8, 3, 4, 8, 3, 2, 7.1, 3, 2, 8, 3, -2, 7.1, 3, -2, 7.1, 1, -2, 8, 3, -2, 8, 3, -2, 7.1, 1, -2, 8, 1, -2, 7.1, 1, -2, 7.1, -1, -2, 8, 1, -2, 8, 1, -2, 7.1, -1, -2, 8, -1, 4, 7.1, -1, 4, 7.1, 1, 4, 8, -1, 4, 8, -1, 4, 7.1, 1, 4, 8, 1, -2, 7.1, -1, 0, 7.1, -1, -2, 8, -1, -2, 8, -1, 0, 7.1, -1, 0, 8, -1, 4, 7.1, 1, 4, 7.1, 3, 4, 8, 1, 4, 8, 1, 4, 7.1, 3, 4, 8, 3, 2, 7.1, -1, 4, 7.1, -1, 2, 8, -1, 2, 8, -1, 4, 7.1, -1, 4, 8, -1, 2, 7.1, 3, 0, 7.1, 3, 2, 8, 3, 2, 8, 3, 0, 7.1, 3, 0, 8, 3, -1.9, 7, -1.08, -1.9, 7.2, -1.08, -2.08, 7, -1.08, -2.08, 7, -1.08, -1.9, 7.2, -1.08, -2.08, 7.2, -1.08, -2.08, 7.2, 1, -2.08, 7, 1, -2.08, 7.2, -0.9, -2.08, 7.2, -0.9, -2.08, 7, 1, -2.08, 7, -0.9, 0.1, 7, -1.08, 0.1, 7.2, -1.08, -1.9, 7, -1.08, -1.9, 7, -1.08, 0.1, 7.2, -1.08, -1.9, 7.2, -1.08, 0.1, 7, -0.9, 0.1, 7, -1.08, -1.9, 7, -0.9, -1.9, 7, -0.9, 0.1, 7, -1.08, -1.9, 7, -1.08, 0.1, 7.2, -1.08, 0.1, 7.2, -0.9, -1.9, 7.2, -1.08, -1.9, 7.2, -1.08, 0.1, 7.2, -0.9, -1.9, 7.2, -0.9, -2.08, 7.2, -1.08, -2.08, 7.2, -0.9, -2.08, 7, -1.08, -2.08, 7, -1.08, -2.08, 7.2, -0.9, -2.08, 7, -0.9, -1.9, 7.2, -1.08, -1.9, 7.2, -0.9, -2.08, 7.2, -1.08, -2.08, 7.2, -1.08, -1.9, 7.2, -0.9, -2.08, 7.2, -0.9, -2.08, 7, 1, -1.9, 7, 1, -2.08, 7, -0.9, -2.08, 7, -0.9, -1.9, 7, 1, -1.9, 7, -0.9, -1.9, 7, -0.9, -1.9, 7, -1.08, -2.08, 7, -0.9, -2.08, 7, -0.9, -1.9, 7, -1.08, -2.08, 7, -1.08, -1.9, 7.2, 1, -2.08, 7.2, 1, -1.9, 7.2, -0.9, -1.9, 7.2, -0.9, -2.08, 7.2, 1, -2.08, 7.2, -0.9, -0.1, 9, -0.9, -0.1, 6.2, -0.9, -0.1, 9, -1.1, -0.1, 9, -1.1, -0.1, 6.2, -0.9, -0.1, 6.2, -1.1, -0.1, 9, -1.1, -0.1, 6.2, -1.1, 0.1, 9, -1.1, 0.1, 9, -1.1, -0.1, 6.2, -1.1, 0.1, 6.2, -1.1, 0.1, 9, -1.1, 0.1, 6.2, -1.1, 0.1, 9, -0.9, 0.1, 9, -0.9, 0.1, 6.2, -1.1, 0.1, 6.2, -0.9, -1.9, 9, -0.9, -1.9, 6.2, -0.9, -2.1, 9, -0.9, -2.1, 9, -0.9, -1.9, 6.2, -0.9, -2.1, 6.2, -0.9, -2.1, 9, -0.9, -2.1, 6.2, -0.9, -2.1, 9, -1.1, -2.1, 9, -1.1, -2.1, 6.2, -0.9, -2.1, 6.2, -1.1, -2.1, 9, -1.1, -2.1, 6.2, -1.1, -1.9, 9, -1.1, -1.9, 9, -1.1, -2.1, 6.2, -1.1, -1.9, 6.2, -1.1, -1.9, 9, -1.1, -1.9, 6.2, -1.1, -1.9, 9, -0.9, -1.9, 9, -0.9, -1.9, 6.2, -1.1, -1.9, 6.2, -0.9, -2.1, 9, 1, -2.1, 6.2, 1, -2.1, 9, 0.9, -2.1, 9, 0.9, -2.1, 6.2, 1, -2.1, 6.2, 0.9, -2.1, 9, 0.9, -2.1, 6.2, 0.9, -1.9, 9, 0.9, -1.9, 9, 0.9, -2.1, 6.2, 0.9, -1.9, 6.2, 0.9, -1.9, 6, -1.1, -1.9, 6.2, -1.1, -2.1, 6, -1.1, -2.1, 6, -1.1, -1.9, 6.2, -1.1, -2.1, 6.2, -1.1, -2.1, 6.2, 1, -2.1, 6, 1, -2.1, 6.2, -0.9, -2.1, 6.2, -0.9, -2.1, 6, 1, -2.1, 6, -0.9, 0.1, 6, -1.1, 0.1, 6.2, -1.1, -1.9, 6, -1.1, -1.9, 6, -1.1, 0.1, 6.2, -1.1, -1.9, 6.2, -1.1, 0.1, 6, -0.9, 0.1, 6, -1.1, -1.9, 6, -0.9, -1.9, 6, -0.9, 0.1, 6, -1.1, -1.9, 6, -1.1, 0.1, 6.2, -1.1, 0.1, 6.2, -0.9, -1.9, 6.2, -1.1, -1.9, 6.2, -1.1, 0.1, 6.2, -0.9, -1.9, 6.2, -0.9, -2.1, 6.2, -1.1, -2.1, 6.2, -0.9, -2.1, 6, -1.1, -2.1, 6, -1.1, -2.1, 6.2, -0.9, -2.1, 6, -0.9, -1.9, 6.2, -1.1, -1.9, 6.2, -0.9, -2.1, 6.2, -1.1, -2.1, 6.2, -1.1, -1.9, 6.2, -0.9, -2.1, 6.2, -0.9, -2.1, 6, 1, -1.9, 6, 1, -2.1, 6, -0.9, -2.1, 6, -0.9, -1.9, 6, 1, -1.9, 6, -0.9, -1.9, 6, -0.9, -1.9, 6, -1.1, -2.1, 6, -0.9, -2.1, 6, -0.9, -1.9, 6, -1.1, -2.1, 6, -1.1, -1.9, 6.2, 1, -2.1, 6.2, 1, -1.9, 6.2, -0.9, -1.9, 6.2, -0.9, -2.1, 6.2, 1, -2.1, 6.2, -0.9, 4.08, 7.2, -1.08, 3.9, 7.2, -1.08, 4.08, 7, -1.08, 4.08, 7, -1.08, 3.9, 7.2, -1.08, 3.9, 7, -1.08, 4.08, 7, -0.9, 4.08, 7, 1, 4.08, 7.2, -0.9, 4.08, 7.2, -0.9, 4.08, 7, 1, 4.08, 7.2, 1, 3.9, 7.2, -1.08, 1.9, 7.2, -1.08, 3.9, 7, -1.08, 3.9, 7, -1.08, 1.9, 7.2, -1.08, 1.9, 7, -1.08, 3.9, 7, -1.08, 1.9, 7, -1.08, 3.9, 7, -0.9, 3.9, 7, -0.9, 1.9, 7, -1.08, 1.9, 7, -0.9, 3.9, 7.2, -0.9, 1.9, 7.2, -0.9, 3.9, 7.2, -1.08, 3.9, 7.2, -1.08, 1.9, 7.2, -0.9, 1.9, 7.2, -1.08, 4.08, 7, -0.9, 4.08, 7.2, -0.9, 4.08, 7, -1.08, 4.08, 7, -1.08, 4.08, 7.2, -0.9, 4.08, 7.2, -1.08, 4.08, 7.2, -0.9, 3.9, 7.2, -0.9, 4.08, 7.2, -1.08, 4.08, 7.2, -1.08, 3.9, 7.2, -0.9, 3.9, 7.2, -1.08, 3.9, 7, -0.9, 3.9, 7, 1, 4.08, 7, -0.9, 4.08, 7, -0.9, 3.9, 7, 1, 4.08, 7, 1, 4.08, 7, -1.08, 3.9, 7, -1.08, 4.08, 7, -0.9, 4.08, 7, -0.9, 3.9, 7, -1.08, 3.9, 7, -0.9, 4.08, 7.2, -0.9, 4.08, 7.2, 1, 3.9, 7.2, -0.9, 3.9, 7.2, -0.9, 4.08, 7.2, 1, 3.9, 7.2, 1, 2.1, 6.2, -1.1, 2.1, 6.2, -0.9, 2.1, 9, -1.1, 2.1, 9, -1.1, 2.1, 6.2, -0.9, 2.1, 9, -0.9, 1.9, 6.2, -1.1, 2.1, 6.2, -1.1, 1.9, 9, -1.1, 1.9, 9, -1.1, 2.1, 6.2, -1.1, 2.1, 9, -1.1, 1.9, 6.2, -0.9, 1.9, 6.2, -1.1, 1.9, 9, -0.9, 1.9, 9, -0.9, 1.9, 6.2, -1.1, 1.9, 9, -1.1, 4.1, 6.2, -0.9, 3.9, 6.2, -0.9, 4.1, 9, -0.9, 4.1, 9, -0.9, 3.9, 6.2, -0.9, 3.9, 9, -0.9, 4.1, 6.2, -1.1, 4.1, 6.2, -0.9, 4.1, 9, -1.1, 4.1, 9, -1.1, 4.1, 6.2, -0.9, 4.1, 9, -0.9, 3.9, 6.2, -1.1, 4.1, 6.2, -1.1, 3.9, 9, -1.1, 3.9, 9, -1.1, 4.1, 6.2, -1.1, 4.1, 9, -1.1, 3.9, 6.2, -0.9, 3.9, 6.2, -1.1, 3.9, 9, -0.9, 3.9, 9, -0.9, 3.9, 6.2, -1.1, 3.9, 9, -1.1, 4.1, 6.2, 0.9, 4.1, 6.2, 1, 4.1, 9, 0.9, 4.1, 9, 0.9, 4.1, 6.2, 1, 4.1, 9, 1, 3.9, 6.2, 0.9, 4.1, 6.2, 0.9, 3.9, 9, 0.9, 3.9, 9, 0.9, 4.1, 6.2, 0.9, 4.1, 9, 0.9, 4.1, 6.2, -1.1, 3.9, 6.2, -1.1, 4.1, 6, -1.1, 4.1, 6, -1.1, 3.9, 6.2, -1.1, 3.9, 6, -1.1, 4.1, 6, -0.9, 4.1, 6, 1, 4.1, 6.2, -0.9, 4.1, 6.2, -0.9, 4.1, 6, 1, 4.1, 6.2, 1, 3.9, 6.2, -1.1, 1.9, 6.2, -1.1, 3.9, 6, -1.1, 3.9, 6, -1.1, 1.9, 6.2, -1.1, 1.9, 6, -1.1, 3.9, 6, -1.1, 1.9, 6, -1.1, 3.9, 6, -0.9, 3.9, 6, -0.9, 1.9, 6, -1.1, 1.9, 6, -0.9, 3.9, 6.2, -0.9, 1.9, 6.2, -0.9, 3.9, 6.2, -1.1, 3.9, 6.2, -1.1, 1.9, 6.2, -0.9, 1.9, 6.2, -1.1, 4.1, 6, -0.9, 4.1, 6.2, -0.9, 4.1, 6, -1.1, 4.1, 6, -1.1, 4.1, 6.2, -0.9, 4.1, 6.2, -1.1, 4.1, 6.2, -0.9, 3.9, 6.2, -0.9, 4.1, 6.2, -1.1, 4.1, 6.2, -1.1, 3.9, 6.2, -0.9, 3.9, 6.2, -1.1, 3.9, 6, -0.9, 3.9, 6, 1, 4.1, 6, -0.9, 4.1, 6, -0.9, 3.9, 6, 1, 4.1, 6, 1, 4.1, 6, -1.1, 3.9, 6, -1.1, 4.1, 6, -0.9, 4.1, 6, -0.9, 3.9, 6, -1.1, 3.9, 6, -0.9, 4.1, 6.2, -0.9, 4.1, 6.2, 1, 3.9, 6.2, -0.9, 3.9, 6.2, -0.9, 4.1, 6.2, 1, 3.9, 6.2, 1, 0.1, 6.2, -1.1, 0.1, 6, -1.1, 0.3, 6.2, -1.1, 0.3, 6.2, -1.1, 0.1, 6, -1.1, 0.3, 6, -1.1, 0.1, 6, -1.1, 0.1, 6, -0.9, 0.3, 6, -1.1, 0.3, 6, -1.1, 0.1, 6, -0.9, 0.3, 6, -0.9, 0.1, 6.2, -0.9, 0.1, 6.2, -1.1, 0.3, 6.2, -0.9, 0.3, 6.2, -0.9, 0.1, 6.2, -1.1, 0.3, 6.2, -1.1, 1.9, 6, -1.1, 1.9, 6.2, -1.1, 1.7, 6, -1.1, 1.7, 6, -1.1, 1.9, 6.2, -1.1, 1.7, 6.2, -1.1, 1.9, 6, -0.9, 1.9, 6, -1.1, 1.7, 6, -0.9, 1.7, 6, -0.9, 1.9, 6, -1.1, 1.7, 6, -1.1, 1.9, 6.2, -1.1, 1.9, 6.2, -0.9, 1.7, 6.2, -1.1, 1.7, 6.2, -1.1, 1.9, 6.2, -0.9, 1.7, 6.2, -0.9, -2.08, 7.2, 3.08, -1.9, 7.2, 3.08, -2.08, 7, 3.08, -2.08, 7, 3.08, -1.9, 7.2, 3.08, -1.9, 7, 3.08, -2.08, 7, 2.9, -2.08, 7, 1, -2.08, 7.2, 2.9, -2.08, 7.2, 2.9, -2.08, 7, 1, -2.08, 7.2, 1, -1.9, 7.2, 3.08, 0.1, 7.2, 3.08, -1.9, 7, 3.08, -1.9, 7, 3.08, 0.1, 7.2, 3.08, 0.1, 7, 3.08, -1.9, 7, 3.08, 0.1, 7, 3.08, -1.9, 7, 2.9, -1.9, 7, 2.9, 0.1, 7, 3.08, 0.1, 7, 2.9, -1.9, 7.2, 2.9, 0.1, 7.2, 2.9, -1.9, 7.2, 3.08, -1.9, 7.2, 3.08, 0.1, 7.2, 2.9, 0.1, 7.2, 3.08, -2.08, 7, 2.9, -2.08, 7.2, 2.9, -2.08, 7, 3.08, -2.08, 7, 3.08, -2.08, 7.2, 2.9, -2.08, 7.2, 3.08, -2.08, 7.2, 2.9, -1.9, 7.2, 2.9, -2.08, 7.2, 3.08, -2.08, 7.2, 3.08, -1.9, 7.2, 2.9, -1.9, 7.2, 3.08, -1.9, 7, 2.9, -1.9, 7, 1, -2.08, 7, 2.9, -2.08, 7, 2.9, -1.9, 7, 1, -2.08, 7, 1, -2.08, 7, 3.08, -1.9, 7, 3.08, -2.08, 7, 2.9, -2.08, 7, 2.9, -1.9, 7, 3.08, -1.9, 7, 2.9, -2.08, 7.2, 2.9, -2.08, 7.2, 1, -1.9, 7.2, 2.9, -1.9, 7.2, 2.9, -2.08, 7.2, 1, -1.9, 7.2, 1, -0.1, 6.2, 3.1, -0.1, 6.2, 2.9, -0.1, 9, 3.1, -0.1, 9, 3.1, -0.1, 6.2, 2.9, -0.1, 9, 2.9, 0.1, 6.2, 3.1, -0.1, 6.2, 3.1, 0.1, 9, 3.1, 0.1, 9, 3.1, -0.1, 6.2, 3.1, -0.1, 9, 3.1, 0.1, 6.2, 2.9, 0.1, 6.2, 3.1, 0.1, 9, 2.9, 0.1, 9, 2.9, 0.1, 6.2, 3.1, 0.1, 9, 3.1, -2.1, 6.2, 2.9, -1.9, 6.2, 2.9, -2.1, 9, 2.9, -2.1, 9, 2.9, -1.9, 6.2, 2.9, -1.9, 9, 2.9, -2.1, 6.2, 3.1, -2.1, 6.2, 2.9, -2.1, 9, 3.1, -2.1, 9, 3.1, -2.1, 6.2, 2.9, -2.1, 9, 2.9, -1.9, 6.2, 3.1, -2.1, 6.2, 3.1, -1.9, 9, 3.1, -1.9, 9, 3.1, -2.1, 6.2, 3.1, -2.1, 9, 3.1, -1.9, 6.2, 2.9, -1.9, 6.2, 3.1, -1.9, 9, 2.9, -1.9, 9, 2.9, -1.9, 6.2, 3.1, -1.9, 9, 3.1, -2.1, 6.2, 1.1, -2.1, 6.2, 1, -2.1, 9, 1.1, -2.1, 9, 1.1, -2.1, 6.2, 1, -2.1, 9, 1, -1.9, 6.2, 1.1, -2.1, 6.2, 1.1, -1.9, 9, 1.1, -1.9, 9, 1.1, -2.1, 6.2, 1.1, -2.1, 9, 1.1, -2.1, 6.2, 3.1, -1.9, 6.2, 3.1, -2.1, 6, 3.1, -2.1, 6, 3.1, -1.9, 6.2, 3.1, -1.9, 6, 3.1, -2.1, 6, 2.9, -2.1, 6, 1, -2.1, 6.2, 2.9, -2.1, 6.2, 2.9, -2.1, 6, 1, -2.1, 6.2, 1, -1.9, 6.2, 3.1, 0.1, 6.2, 3.1, -1.9, 6, 3.1, -1.9, 6, 3.1, 0.1, 6.2, 3.1, 0.1, 6, 3.1, -1.9, 6, 3.1, 0.1, 6, 3.1, -1.9, 6, 2.9, -1.9, 6, 2.9, 0.1, 6, 3.1, 0.1, 6, 2.9, -1.9, 6.2, 2.9, 0.1, 6.2, 2.9, -1.9, 6.2, 3.1, -1.9, 6.2, 3.1, 0.1, 6.2, 2.9, 0.1, 6.2, 3.1, -2.1, 6, 2.9, -2.1, 6.2, 2.9, -2.1, 6, 3.1, -2.1, 6, 3.1, -2.1, 6.2, 2.9, -2.1, 6.2, 3.1, -2.1, 6.2, 2.9, -1.9, 6.2, 2.9, -2.1, 6.2, 3.1, -2.1, 6.2, 3.1, -1.9, 6.2, 2.9, -1.9, 6.2, 3.1, -1.9, 6, 2.9, -1.9, 6, 1, -2.1, 6, 2.9, -2.1, 6, 2.9, -1.9, 6, 1, -2.1, 6, 1, -2.1, 6, 3.1, -1.9, 6, 3.1, -2.1, 6, 2.9, -2.1, 6, 2.9, -1.9, 6, 3.1, -1.9, 6, 2.9, -2.1, 6.2, 2.9, -2.1, 6.2, 1, -1.9, 6.2, 2.9, -1.9, 6.2, 2.9, -2.1, 6.2, 1, -1.9, 6.2, 1, 3.9, 7, 3.08, 3.9, 7.2, 3.08, 4.08, 7, 3.08, 4.08, 7, 3.08, 3.9, 7.2, 3.08, 4.08, 7.2, 3.08, 4.08, 7.2, 1, 4.08, 7, 1, 4.08, 7.2, 2.9, 4.08, 7.2, 2.9, 4.08, 7, 1, 4.08, 7, 2.9, 1.9, 7, 3.08, 1.9, 7.2, 3.08, 3.9, 7, 3.08, 3.9, 7, 3.08, 1.9, 7.2, 3.08, 3.9, 7.2, 3.08, 1.9, 7, 2.9, 1.9, 7, 3.08, 3.9, 7, 2.9, 3.9, 7, 2.9, 1.9, 7, 3.08, 3.9, 7, 3.08, 1.9, 7.2, 3.08, 1.9, 7.2, 2.9, 3.9, 7.2, 3.08, 3.9, 7.2, 3.08, 1.9, 7.2, 2.9, 3.9, 7.2, 2.9, 4.08, 7.2, 3.08, 4.08, 7.2, 2.9, 4.08, 7, 3.08, 4.08, 7, 3.08, 4.08, 7.2, 2.9, 4.08, 7, 2.9, 3.9, 7.2, 3.08, 3.9, 7.2, 2.9, 4.08, 7.2, 3.08, 4.08, 7.2, 3.08, 3.9, 7.2, 2.9, 4.08, 7.2, 2.9, 4.08, 7, 1, 3.9, 7, 1, 4.08, 7, 2.9, 4.08, 7, 2.9, 3.9, 7, 1, 3.9, 7, 2.9, 3.9, 7, 2.9, 3.9, 7, 3.08, 4.08, 7, 2.9, 4.08, 7, 2.9, 3.9, 7, 3.08, 4.08, 7, 3.08, 3.9, 7.2, 1, 4.08, 7.2, 1, 3.9, 7.2, 2.9, 3.9, 7.2, 2.9, 4.08, 7.2, 1, 4.08, 7.2, 2.9, 2.1, 9, 2.9, 2.1, 6.2, 2.9, 2.1, 9, 3.1, 2.1, 9, 3.1, 2.1, 6.2, 2.9, 2.1, 6.2, 3.1, 2.1, 9, 3.1, 2.1, 6.2, 3.1, 1.9, 9, 3.1, 1.9, 9, 3.1, 2.1, 6.2, 3.1, 1.9, 6.2, 3.1, 1.9, 9, 3.1, 1.9, 6.2, 3.1, 1.9, 9, 2.9, 1.9, 9, 2.9, 1.9, 6.2, 3.1, 1.9, 6.2, 2.9, 3.9, 9, 2.9, 3.9, 6.2, 2.9, 4.1, 9, 2.9, 4.1, 9, 2.9, 3.9, 6.2, 2.9, 4.1, 6.2, 2.9, 4.1, 9, 2.9, 4.1, 6.2, 2.9, 4.1, 9, 3.1, 4.1, 9, 3.1, 4.1, 6.2, 2.9, 4.1, 6.2, 3.1, 4.1, 9, 3.1, 4.1, 6.2, 3.1, 3.9, 9, 3.1, 3.9, 9, 3.1, 4.1, 6.2, 3.1, 3.9, 6.2, 3.1, 3.9, 9, 3.1, 3.9, 6.2, 3.1, 3.9, 9, 2.9, 3.9, 9, 2.9, 3.9, 6.2, 3.1, 3.9, 6.2, 2.9, 4.1, 9, 1, 4.1, 6.2, 1, 4.1, 9, 1.1, 4.1, 9, 1.1, 4.1, 6.2, 1, 4.1, 6.2, 1.1, 4.1, 9, 1.1, 4.1, 6.2, 1.1, 3.9, 9, 1.1, 3.9, 9, 1.1, 4.1, 6.2, 1.1, 3.9, 6.2, 1.1, 3.9, 6, 3.1, 3.9, 6.2, 3.1, 4.1, 6, 3.1, 4.1, 6, 3.1, 3.9, 6.2, 3.1, 4.1, 6.2, 3.1, 4.1, 6.2, 1, 4.1, 6, 1, 4.1, 6.2, 2.9, 4.1, 6.2, 2.9, 4.1, 6, 1, 4.1, 6, 2.9, 1.9, 6, 3.1, 1.9, 6.2, 3.1, 3.9, 6, 3.1, 3.9, 6, 3.1, 1.9, 6.2, 3.1, 3.9, 6.2, 3.1, 1.9, 6, 2.9, 1.9, 6, 3.1, 3.9, 6, 2.9, 3.9, 6, 2.9, 1.9, 6, 3.1, 3.9, 6, 3.1, 1.9, 6.2, 3.1, 1.9, 6.2, 2.9, 3.9, 6.2, 3.1, 3.9, 6.2, 3.1, 1.9, 6.2, 2.9, 3.9, 6.2, 2.9, 4.1, 6.2, 3.1, 4.1, 6.2, 2.9, 4.1, 6, 3.1, 4.1, 6, 3.1, 4.1, 6.2, 2.9, 4.1, 6, 2.9, 3.9, 6.2, 3.1, 3.9, 6.2, 2.9, 4.1, 6.2, 3.1, 4.1, 6.2, 3.1, 3.9, 6.2, 2.9, 4.1, 6.2, 2.9, 4.1, 6, 1, 3.9, 6, 1, 4.1, 6, 2.9, 4.1, 6, 2.9, 3.9, 6, 1, 3.9, 6, 2.9, 3.9, 6, 2.9, 3.9, 6, 3.1, 4.1, 6, 2.9, 4.1, 6, 2.9, 3.9, 6, 3.1, 4.1, 6, 3.1, 3.9, 6.2, 1, 4.1, 6.2, 1, 3.9, 6.2, 2.9, 3.9, 6.2, 2.9, 4.1, 6.2, 1, 4.1, 6.2, 2.9, 0.1, 6.2, 2.9, 1.9, 6.2, 2.9, 0.1, 6.2, 3.1, 0.1, 6.2, 3.1, 1.9, 6.2, 2.9, 1.9, 6.2, 3.1, 0.1, 6.2, 3.1, 1.9, 6.2, 3.1, 0.1, 6, 3.1, 0.1, 6, 3.1, 1.9, 6.2, 3.1, 1.9, 6, 3.1, 0.1, 6, 3.1, 1.9, 6, 3.1, 0.1, 6, 2.9, 0.1, 6, 2.9, 1.9, 6, 3.1, 1.9, 6, 2.9, 4.05, 6.3349, 1.0306, 4.05, 6.1482, 1.1023, 4.05, 7.0518, 2.8977, 4.05, 7.0518, 2.8977, 4.05, 6.1482, 1.1023, 4.05, 6.8651, 2.9694, 4.05, 6.1482, 1.1023, 4, 6.1482, 1.1023, 4.05, 6.8651, 2.9694, 4.05, 6.8651, 2.9694, 4, 6.1482, 1.1023, 4, 6.8651, 2.9694, 4, 6.3349, 1.0306, 4.05, 6.3349, 1.0306, 4, 7.0518, 2.8977, 4, 7.0518, 2.8977, 4.05, 6.3349, 1.0306, 4.05, 7.0518, 2.8977, -1.9694, 6.3349, -1.05, -1.8977, 6.1482, -1.05, -0.1023, 7.0518, -1.05, -0.1023, 7.0518, -1.05, -1.8977, 6.1482, -1.05, -0.0306, 6.8651, -1.05, -1.8977, 6.1482, -1.05, -1.8977, 6.1482, -1, -0.0306, 6.8651, -1.05, -0.0306, 6.8651, -1.05, -1.8977, 6.1482, -1, -0.0306, 6.8651, -1, -1.9694, 6.3349, -1, -1.9694, 6.3349, -1.05, -0.1023, 7.0518, -1, -0.1023, 7.0518, -1, -1.9694, 6.3349, -1.05, -0.1023, 7.0518, -1.05, 2.0306, 6.3349, -1.05, 2.1023, 6.1482, -1.05, 3.8977, 7.0518, -1.05, 3.8977, 7.0518, -1.05, 2.1023, 6.1482, -1.05, 3.9694, 6.8651, -1.05, 2.1023, 6.1482, -1.05, 2.1023, 6.1482, -1, 3.9694, 6.8651, -1.05, 3.9694, 6.8651, -1.05, 2.1023, 6.1482, -1, 3.9694, 6.8651, -1, 2.0306, 6.3349, -1, 2.0306, 6.3349, -1.05, 3.8977, 7.0518, -1, 3.8977, 7.0518, -1, 2.0306, 6.3349, -1.05, 3.8977, 7.0518, -1.05, 4.05, 7.0939, -0.8753, 4.05, 6.9108, -0.9557, 4.05, 6.2892, 0.9557, 4.05, 6.2892, 0.9557, 4.05, 6.9108, -0.9557, 4.05, 6.1061, 0.8753, 4.05, 6.9108, -0.9557, 4, 6.9108, -0.9557, 4.05, 6.1061, 0.8753, 4.05, 6.1061, 0.8753, 4, 6.9108, -0.9557, 4, 6.1061, 0.8753, 4, 7.0939, -0.8753, 4.05, 7.0939, -0.8753, 4, 6.2892, 0.9557, 4, 6.2892, 0.9557, 4.05, 7.0939, -0.8753, 4.05, 6.2892, 0.9557, 1.9472, 6.2641, 3.05, 1.8619, 6.0832, 3.05, 0.1381, 7.1168, 3.05, 0.1381, 7.1168, 3.05, 1.8619, 6.0832, 3.05, 0.0528, 6.9359, 3.05, 1.8619, 6.0832, 3.05, 1.8619, 6.0832, 3, 0.0528, 6.9359, 3.05, 0.0528, 6.9359, 3.05, 1.8619, 6.0832, 3, 0.0528, 6.9359, 3, 1.9472, 6.2641, 3, 1.9472, 6.2641, 3.05, 0.1381, 7.1168, 3, 0.1381, 7.1168, 3, 1.9472, 6.2641, 3.05, 0.1381, 7.1168, 3.05, 3.8813, 7.0831, 3.05, 3.9595, 6.899, 3.05, 2.0405, 6.301, 3.05, 2.0405, 6.301, 3.05, 3.9595, 6.899, 3.05, 2.1187, 6.1169, 3.05, 3.9595, 6.899, 3.05, 3.9595, 6.899, 3, 2.1187, 6.1169, 3.05, 2.1187, 6.1169, 3.05, 3.9595, 6.899, 3, 2.1187, 6.1169, 3, 3.8813, 7.0831, 3, 3.8813, 7.0831, 3.05, 2.0405, 6.301, 3, 2.0405, 6.301, 3, 3.8813, 7.0831, 3.05, 2.0405, 6.301, 3.05, -0.1068, 7.0607, 3.05, -0.0333, 6.8747, 3.05, -1.9667, 6.3253, 3.05, -1.9667, 6.3253, 3.05, -0.0333, 6.8747, 3.05, -1.8932, 6.1393, 3.05, -0.0333, 6.8747, 3.05, -0.0333, 6.8747, 3, -1.8932, 6.1393, 3.05, -1.8932, 6.1393, 3.05, -0.0333, 6.8747, 3, -1.8932, 6.1393, 3, -0.1068, 7.0607, 3, -0.1068, 7.0607, 3.05, -1.9667, 6.3253, 3, -1.9667, 6.3253, 3, -0.1068, 7.0607, 3.05, -1.9667, 6.3253, 3.05, -2.05, 6.2477, 2.9412, -2.05, 6.0683, 2.8528, -2.05, 7.1317, 1.1472, -2.05, 7.1317, 1.1472, -2.05, 6.0683, 2.8528, -2.05, 6.9523, 1.0588, -2.05, 6.0683, 2.8528, -2, 6.0683, 2.8528, -2.05, 6.9523, 1.0588, -2.05, 6.9523, 1.0588, -2, 6.0683, 2.8528, -2, 6.9523, 1.0588, -2, 6.2477, 2.9412, -2.05, 6.2477, 2.9412, -2, 7.1317, 1.1472, -2, 7.1317, 1.1472, -2.05, 6.2477, 2.9412, -2.05, 7.1317, 1.1472, -2.05, 7.0663, 0.8903, -2.05, 6.8808, 0.965, -2.05, 6.3192, -0.965, -2.05, 6.3192, -0.965, -2.05, 6.8808, 0.965, -2.05, 6.1337, -0.8903, -2.05, 6.8808, 0.965, -2, 6.8808, 0.965, -2.05, 6.1337, -0.8903, -2.05, 6.1337, -0.8903, -2, 6.8808, 0.965, -2, 6.1337, -0.8903, -2, 7.0663, 0.8903, -2.05, 7.0663, 0.8903, -2, 6.3192, -0.965, -2, 6.3192, -0.965, -2.05, 7.0663, 0.8903, -2.05, 6.3192, -0.965, 2.0831, 9.1296, -1.05, 1.9438, 8.9861, -1.05, 4.0562, 7.2139, -1.05, 4.0562, 7.2139, -1.05, 1.9438, 8.9861, -1.05, 3.9169, 7.0704, -1.05, 1.9438, 8.9861, -1.05, 1.9438, 8.9861, -1, 3.9169, 7.0704, -1.05, 3.9169, 7.0704, -1.05, 1.9438, 8.9861, -1, 3.9169, 7.0704, -1, 2.0831, 9.1296, -1, 2.0831, 9.1296, -1.05, 4.0562, 7.2139, -1, 4.0562, 7.2139, -1, 2.0831, 9.1296, -1.05, 4.0562, 7.2139, -1.05, -1.9169, 9.1296, -1.05, -2.0562, 8.9861, -1.05, 0.0562, 7.2139, -1.05, 0.0562, 7.2139, -1.05, -2.0562, 8.9861, -1.05, -0.0831, 7.0704, -1.05, -2.0562, 8.9861, -1.05, -2.0562, 8.9861, -1, -0.0831, 7.0704, -1.05, -0.0831, 7.0704, -1.05, -2.0562, 8.9861, -1, -0.0831, 7.0704, -1, -1.9169, 9.1296, -1, -1.9169, 9.1296, -1.05, 0.0562, 7.2139, -1, 0.0562, 7.2139, -1, -1.9169, 9.1296, -1.05, 0.0562, 7.2139, -1.05, 2.0783, 7.241, 3.05, 1.9427, 7.094, 3.05, 0.0574, 9.106, 3.05, 0.0574, 9.106, 3.05, 1.9427, 7.094, 3.05, -0.0783, 8.959, 3.05, 1.9427, 7.094, 3.05, 1.9427, 7.094, 3, -0.0783, 8.959, 3.05, -0.0783, 8.959, 3.05, 1.9427, 7.094, 3, -0.0783, 8.959, 3, 2.0783, 7.241, 3, 2.0783, 7.241, 3.05, 0.0574, 9.106, 3, 0.0574, 9.106, 3, 2.0783, 7.241, 3.05, 0.0574, 9.106, 3.05, 0, 6.1, -1, 0.5, 6.1, -1, 0, 7.1, -1, 0, 7.1, -1, 0.5, 6.1, -1, 0, 8, -1, 0, 8, -1, 0.5, 6.1, -1, 0.5, 8, -1, 1.5, 6.1, -1, 2, 6.1, -1, 1.5, 8, -1, 1.5, 8, -1, 2, 6.1, -1, 2, 8, -1, 2, 8, -1, 2, 6.1, -1, 2, 7.1, -1, 0.5, 8, -1.1, 0.5, 8, -0.9, 1.5, 8, -1.1, 1.5, 8, -1.1, 0.5, 8, -0.9, 1.5, 8, -0.9, 1.5, 8, -1.1, 1.5, 6, -1.1, 1.7, 8, -1.1, 1.7, 8, -1.1, 1.5, 6, -1.1, 1.7, 6, -1.1, 1.7, 8, -1.1, 1.7, 6, -1.1, 1.7, 8, -0.9, 1.7, 8, -0.9, 1.7, 6, -1.1, 1.7, 6, -0.9, 1.7, 8, -1.1, 1.7, 8, -0.9, 1.7, 8.2, -1.1, 1.7, 8.2, -1.1, 1.7, 8, -0.9, 1.7, 8.2, -0.9, 1.5, 8, -1.1, 1.7, 8, -1.1, 1.5, 8.2, -1.1, 1.5, 8.2, -1.1, 1.7, 8, -1.1, 1.7, 8.2, -1.1, 1.5, 8.2, -0.9, 0.5, 8.2, -0.9, 1.5, 8.2, -1.1, 1.5, 8.2, -1.1, 0.5, 8.2, -0.9, 0.5, 8.2, -1.1, 1.5, 8.2, -1.1, 0.5, 8.2, -1.1, 1.5, 8, -1.1, 1.5, 8, -1.1, 0.5, 8.2, -1.1, 0.5, 8, -1.1, 1.5, 8, -0.9, 0.5, 8, -0.9, 1.5, 8.2, -0.9, 1.5, 8.2, -0.9, 0.5, 8, -0.9, 0.5, 8.2, -0.9, 1.5, 8.2, -0.9, 1.5, 8.2, -1.1, 1.7, 8.2, -0.9, 1.7, 8.2, -0.9, 1.5, 8.2, -1.1, 1.7, 8.2, -1.1, 0.3, 6, -1.1, 0.5, 6, -1.1, 0.3, 8, -1.1, 0.3, 8, -1.1, 0.5, 6, -1.1, 0.5, 8, -1.1, 0.3, 6, -0.9, 0.3, 6, -1.1, 0.3, 8, -0.9, 0.3, 8, -0.9, 0.3, 6, -1.1, 0.3, 8, -1.1, 0.3, 8.2, -0.9, 0.3, 8, -0.9, 0.3, 8.2, -1.1, 0.3, 8.2, -1.1, 0.3, 8, -0.9, 0.3, 8, -1.1, 0.3, 8.2, -1.1, 0.3, 8, -1.1, 0.5, 8.2, -1.1, 0.5, 8.2, -1.1, 0.3, 8, -1.1, 0.5, 8, -1.1, 1.5, 8, -1.1, 1.5, 8, -0.9, 1.5, 6, -1.1, 1.5, 6, -1.1, 1.5, 8, -0.9, 1.5, 6, -1.0333, 1.5, 6, -1.0333, 1.5, 8, -0.9, 1.5, 6, -0.9667, 1.5, 6, -0.9667, 1.5, 8, -0.9, 1.5, 6, -0.9, 0.3, 8.2, -1.1, 0.5, 8.2, -1.1, 0.3, 8.2, -0.9, 0.3, 8.2, -0.9, 0.5, 8.2, -1.1, 0.5, 8.2, -0.9, 0.5, 6, -1.0333, 0.5, 6, -0.9667, 0.5, 6, -1.1, 0.5, 6, -1.1, 0.5, 6, -0.9667, 0.5, 8, -1.1, 0.5, 8, -1.1, 0.5, 6, -0.9667, 0.5, 8, -0.9, 0.5, 8, -0.9, 0.5, 6, -0.9667, 0.5, 6, -0.9, 4, 9.2, 3, 4, 11.2, 1, 2, 9.2, 3, 2, 9.2, 3, 4, 11.2, 1, 2, 11.2, 1, 2, 9.2, 3, 2, 11.2, 1, 0, 9.2, 3, 0, 9.2, 3, 2, 11.2, 1, 0, 11.2, 1, 0, 9.2, 3, 0, 11.2, 1, -2, 9.2, 3, -2, 9.2, 3, 0, 11.2, 1, -2, 11.2, 1, 2, 11.4, 1, 4, 11.4, 1, 2, 9.4, 3, 2, 9.4, 3, 4, 11.4, 1, 4, 9.4, 3, 0, 11.4, 1, 2, 11.4, 1, 0, 9.4, 3, 0, 9.4, 3, 2, 11.4, 1, 2, 9.4, 3, -2, 11.4, 1, 0, 11.4, 1, -2, 9.4, 3, -2, 9.4, 3, 0, 11.4, 1, 0, 9.4, 3, -2.2, 9.2, 3, -2.2, 9.4, 3, -2.2, 8.75, 3.45, -2.2, 8.75, 3.45, -2.2, 9.4, 3, -2.2, 8.85, 3.55, 4, 9.4, 3, 4.2, 9.4, 3, 4, 8.85, 3.55, 4, 8.85, 3.55, 4.2, 9.4, 3, 4.2, 8.85, 3.55, 0, 9.2, 3, -2, 9.2, 3, 0, 8.75, 3.45, 0, 8.75, 3.45, -2, 9.2, 3, -2, 8.75, 3.45, 4, 9.4, 3, 4, 11.4, 1, 4.2, 9.4, 3, 4.2, 9.4, 3, 4, 11.4, 1, 4.2, 11.4, 1, -2, 9.4, 3, 0, 9.4, 3, -2, 8.85, 3.55, -2, 8.85, 3.55, 0, 9.4, 3, 0, 8.85, 3.55, -2.2, 9.2, 3, -2.2, 11.2, 1, -2.2, 9.4, 3, -2.2, 9.4, 3, -2.2, 11.2, 1, -2.2, 11.4, 1, -2, 11.4, 1, -2, 9.4, 3, -2.2, 11.4, 1, -2.2, 11.4, 1, -2, 9.4, 3, -2.2, 9.4, 3, -2, 9.2, 3, -2, 11.2, 1, -2.2, 9.2, 3, -2.2, 9.2, 3, -2, 11.2, 1, -2.2, 11.2, 1, 4.2, 11.2, 1, 4.2, 9.2, 3, 4.2, 11.4, 1, 4.2, 11.4, 1, 4.2, 9.2, 3, 4.2, 9.4, 3, 4.2, 9.4, 3, 4.2, 9.2, 3, 4.2, 8.85, 3.55, 4.2, 8.85, 3.55, 4.2, 9.2, 3, 4.2, 8.75, 3.45, 4, 11.2, 1, 4, 9.2, 3, 4.2, 11.2, 1, 4.2, 11.2, 1, 4, 9.2, 3, 4.2, 9.2, 3, -2, 8.85, 3.55, -2, 8.75, 3.45, -2.2, 8.85, 3.55, -2.2, 8.85, 3.55, -2, 8.75, 3.45, -2.2, 8.75, 3.45, 4, 8.75, 3.45, 2, 8.75, 3.45, 4, 8.85, 3.55, 4, 8.85, 3.55, 2, 8.75, 3.45, 2, 8.85, 3.55, 0, 8.75, 3.45, -2, 8.75, 3.45, 0, 8.85, 3.55, 0, 8.85, 3.55, -2, 8.75, 3.45, -2, 8.85, 3.55, 2, 8.75, 3.45, 0, 8.75, 3.45, 2, 8.85, 3.55, 2, 8.85, 3.55, 0, 8.75, 3.45, 0, 8.85, 3.55, 4, 8.75, 3.45, 4, 8.85, 3.55, 4.2, 8.75, 3.45, 4.2, 8.75, 3.45, 4, 8.85, 3.55, 4.2, 8.85, 3.55, 2, 9.2, 3, 0, 9.2, 3, 2, 8.75, 3.45, 2, 8.75, 3.45, 0, 9.2, 3, 0, 8.75, 3.45, 0, 9.4, 3, 2, 9.4, 3, 0, 8.85, 3.55, 0, 8.85, 3.55, 2, 9.4, 3, 2, 8.85, 3.55, -2.2, 9.4, 3, -2, 9.4, 3, -2.2, 8.85, 3.55, -2.2, 8.85, 3.55, -2, 9.4, 3, -2, 8.85, 3.55, 4.2, 9.2, 3, 4, 9.2, 3, 4.2, 8.75, 3.45, 4.2, 8.75, 3.45, 4, 9.2, 3, 4, 8.75, 3.45, 4, 9.2, 3, 2, 9.2, 3, 4, 8.75, 3.45, 4, 8.75, 3.45, 2, 9.2, 3, 2, 8.75, 3.45, 2, 9.4, 3, 4, 9.4, 3, 2, 8.85, 3.55, 2, 8.85, 3.55, 4, 9.4, 3, 4, 8.85, 3.55, -2, 9.2, 3, -2.2, 9.2, 3, -2, 8.75, 3.45, -2, 8.75, 3.45, -2.2, 9.2, 3, -2.2, 8.75, 3.45, 2, 11.2, 1, 4, 11.2, 1, 2, 9.2, -1, 2, 9.2, -1, 4, 11.2, 1, 4, 9.2, -1, 0, 11.2, 1, 2, 11.2, 1, 0, 9.2, -1, 0, 9.2, -1, 2, 11.2, 1, 2, 9.2, -1, -2, 11.2, 1, 0, 11.2, 1, -2, 9.2, -1, -2, 9.2, -1, 0, 11.2, 1, 0, 9.2, -1, 4, 9.4, -1, 4, 11.4, 1, 2, 9.4, -1, 2, 9.4, -1, 4, 11.4, 1, 2, 11.4, 1, 2, 9.4, -1, 2, 11.4, 1, 0, 9.4, -1, 0, 9.4, -1, 2, 11.4, 1, 0, 11.4, 1, 0, 9.4, -1, 0, 11.4, 1, -2, 9.4, -1, -2, 9.4, -1, 0, 11.4, 1, -2, 11.4, 1, -2.2, 8.85, -1.55, -2.2, 9.4, -1, -2.2, 8.75, -1.45, -2.2, 8.75, -1.45, -2.2, 9.4, -1, -2.2, 9.2, -1, 4.2, 8.85, -1.55, 4.2, 9.4, -1, 4, 8.85, -1.55, 4, 8.85, -1.55, 4.2, 9.4, -1, 4, 9.4, -1, -2, 8.75, -1.45, -2, 9.2, -1, 0, 8.75, -1.45, 0, 8.75, -1.45, -2, 9.2, -1, 0, 9.2, -1, 4.2, 11.4, 1, 4, 11.4, 1, 4.2, 9.4, -1, 4.2, 9.4, -1, 4, 11.4, 1, 4, 9.4, -1, 0, 8.85, -1.55, 0, 9.4, -1, -2, 8.85, -1.55, -2, 8.85, -1.55, 0, 9.4, -1, -2, 9.4, -1, -2.2, 11.4, 1, -2.2, 11.2, 1, -2.2, 9.4, -1, -2.2, 9.4, -1, -2.2, 11.2, 1, -2.2, 9.2, -1, -2.2, 9.4, -1, -2, 9.4, -1, -2.2, 11.4, 1, -2.2, 11.4, 1, -2, 9.4, -1, -2, 11.4, 1, -2.2, 11.2, 1, -2, 11.2, 1, -2.2, 9.2, -1, -2.2, 9.2, -1, -2, 11.2, 1, -2, 9.2, -1, 4.2, 9.4, -1, 4.2, 9.2, -1, 4.2, 11.4, 1, 4.2, 11.4, 1, 4.2, 9.2, -1, 4.2, 11.2, 1, 4.2, 8.75, -1.45, 4.2, 9.2, -1, 4.2, 8.85, -1.55, 4.2, 8.85, -1.55, 4.2, 9.2, -1, 4.2, 9.4, -1, 4.2, 9.2, -1, 4, 9.2, -1, 4.2, 11.2, 1, 4.2, 11.2, 1, 4, 9.2, -1, 4, 11.2, 1, -2.2, 8.75, -1.45, -2, 8.75, -1.45, -2.2, 8.85, -1.55, -2.2, 8.85, -1.55, -2, 8.75, -1.45, -2, 8.85, -1.55, 2, 8.85, -1.55, 2, 8.75, -1.45, 4, 8.85, -1.55, 4, 8.85, -1.55, 2, 8.75, -1.45, 4, 8.75, -1.45, -2, 8.85, -1.55, -2, 8.75, -1.45, 0, 8.85, -1.55, 0, 8.85, -1.55, -2, 8.75, -1.45, 0, 8.75, -1.45, 0, 8.85, -1.55, 0, 8.75, -1.45, 2, 8.85, -1.55, 2, 8.85, -1.55, 0, 8.75, -1.45, 2, 8.75, -1.45, 4.2, 8.85, -1.55, 4, 8.85, -1.55, 4.2, 8.75, -1.45, 4.2, 8.75, -1.45, 4, 8.85, -1.55, 4, 8.75, -1.45, 0, 8.75, -1.45, 0, 9.2, -1, 2, 8.75, -1.45, 2, 8.75, -1.45, 0, 9.2, -1, 2, 9.2, -1, 2, 8.85, -1.55, 2, 9.4, -1, 0, 8.85, -1.55, 0, 8.85, -1.55, 2, 9.4, -1, 0, 9.4, -1, -2, 8.85, -1.55, -2, 9.4, -1, -2.2, 8.85, -1.55, -2.2, 8.85, -1.55, -2, 9.4, -1, -2.2, 9.4, -1, 4, 8.75, -1.45, 4, 9.2, -1, 4.2, 8.75, -1.45, 4.2, 8.75, -1.45, 4, 9.2, -1, 4.2, 9.2, -1, 2, 8.75, -1.45, 2, 9.2, -1, 4, 8.75, -1.45, 4, 8.75, -1.45, 2, 9.2, -1, 4, 9.2, -1, 4, 8.85, -1.55, 4, 9.4, -1, 2, 8.85, -1.55, 2, 8.85, -1.55, 4, 9.4, -1, 2, 9.4, -1, -2.2, 8.75, -1.45, -2.2, 9.2, -1, -2, 8.75, -1.45, -2, 8.75, -1.45, -2.2, 9.2, -1, -2, 9.2, -1, -1.5, 9.7, 2.7, -1.5, 9.7, 2.7, -1.5, 10.5, 2.7, -1.5, 10.5, 2.7, -1.5, 9.7, 2.7, -1.5, 10.5, 1.8, -0.5, 9.7, 2.7, -1, 9.7, 2.7, -0.5, 10.5, 2.7, -0.5, 10.5, 2.7, -1, 9.7, 2.7, -1, 11.1, 2.7, -0.5, 9.7, 2.7, -0.5, 9.7, 2.7, -0.5, 10.5, 1.8, -0.5, 10.5, 1.8, -0.5, 9.7, 2.7, -0.5, 10.5, 2.7, -1, 9.7, 2.7, -1.5, 9.7, 2.7, -1, 11.1, 2.7, -1, 11.1, 2.7, -1.5, 9.7, 2.7, -1.5, 10.5, 2.7, 3.5, 10.5, 1.8, 3.5, 9.7, 2.7, 3.5, 10.5, 2.7, 3.5, 10.5, 2.7, 3.5, 9.7, 2.7, 3.5, 9.7, 2.7, 3, 11.1, 2.7, 3, 9.7, 2.7, 2.5, 10.5, 2.7, 2.5, 10.5, 2.7, 3, 9.7, 2.7, 2.5, 9.7, 2.7, 2.5, 10.5, 2.7, 2.5, 9.7, 2.7, 2.5, 10.5, 1.8, 2.5, 10.5, 1.8, 2.5, 9.7, 2.7, 2.5, 9.7, 2.7, 3.5, 10.5, 2.7, 3.5, 9.7, 2.7, 3, 11.1, 2.7, 3, 11.1, 2.7, 3.5, 9.7, 2.7, 3, 9.7, 2.7, -1.5, 10.5, 0.2, -1.5, 9.7, -0.7, -1.5, 10.5, -0.7, -1.5, 10.5, -0.7, -1.5, 9.7, -0.7, -1.5, 9.7, -0.7, -1, 11.1, -0.7, -1, 9.7, -0.7, -0.5, 10.5, -0.7, -0.5, 10.5, -0.7, -1, 9.7, -0.7, -0.5, 9.7, -0.7, -0.5, 10.5, -0.7, -0.5, 9.7, -0.7, -0.5, 10.5, 0.2, -0.5, 10.5, 0.2, -0.5, 9.7, -0.7, -0.5, 9.7, -0.7, -1.5, 10.5, -0.7, -1.5, 9.7, -0.7, -1, 11.1, -0.7, -1, 11.1, -0.7, -1.5, 9.7, -0.7, -1, 9.7, -0.7, 3.5, 9.7, -0.7, 3.5, 9.7, -0.7, 3.5, 10.5, -0.7, 3.5, 10.5, -0.7, 3.5, 9.7, -0.7, 3.5, 10.5, 0.2, 2.5, 9.7, -0.7, 3, 9.7, -0.7, 2.5, 10.5, -0.7, 2.5, 10.5, -0.7, 3, 9.7, -0.7, 3, 11.1, -0.7, 2.5, 9.7, -0.7, 2.5, 9.7, -0.7, 2.5, 10.5, 0.2, 2.5, 10.5, 0.2, 2.5, 9.7, -0.7, 2.5, 10.5, -0.7, 3, 9.7, -0.7, 3.5, 9.7, -0.7, 3, 11.1, -0.7, 3, 11.1, -0.7, 3.5, 9.7, -0.7, 3.5, 10.5, -0.7, 1, 11.3, 0.8, -2.3, 11.35, 0.8, 1, 11, 0.8, 1, 11, 0.8, -2.3, 11.35, 0.8, -2.3, 11.05, 0.8, -2.3, 11.6, 1, -2.3, 11.05, 1, -2.3, 11.35, 0.8, -2.3, 11.35, 0.8, -2.3, 11.05, 1, -2.3, 11.05, 0.8, 1, 11.3, 0.8, 1, 11.4, 1, -2.3, 11.35, 0.8, -2.3, 11.35, 0.8, 1, 11.4, 1, -2.3, 11.6, 1, 1, 11, 1, 1, 11, 0.8, -2.3, 11.05, 1, -2.3, 11.05, 1, 1, 11, 0.8, -2.3, 11.05, 0.8, -2.3, 11.05, 1.2, -2.3, 11.35, 1.2, 1, 11, 1.2, 1, 11, 1.2, -2.3, 11.35, 1.2, 1, 11.3, 1.2, -2.3, 11.05, 1.2, -2.3, 11.05, 1, -2.3, 11.35, 1.2, -2.3, 11.35, 1.2, -2.3, 11.05, 1, -2.3, 11.6, 1, -2.3, 11.6, 1, 1, 11.4, 1, -2.3, 11.35, 1.2, -2.3, 11.35, 1.2, 1, 11.4, 1, 1, 11.3, 1.2, -2.3, 11.05, 1.2, 1, 11, 1.2, -2.3, 11.05, 1, -2.3, 11.05, 1, 1, 11, 1.2, 1, 11, 1, 4.3, 11.05, 0.8, 4.3, 11.35, 0.8, 1, 11, 0.8, 1, 11, 0.8, 4.3, 11.35, 0.8, 1, 11.3, 0.8, 4.3, 11.05, 0.8, 4.3, 11.05, 1, 4.3, 11.35, 0.8, 4.3, 11.35, 0.8, 4.3, 11.05, 1, 4.3, 11.6, 1, 4.3, 11.6, 1, 1, 11.4, 1, 4.3, 11.35, 0.8, 4.3, 11.35, 0.8, 1, 11.4, 1, 1, 11.3, 0.8, 4.3, 11.05, 0.8, 1, 11, 0.8, 4.3, 11.05, 1, 4.3, 11.05, 1, 1, 11, 0.8, 1, 11, 1, 1, 11.3, 1.2, 4.3, 11.35, 1.2, 1, 11, 1.2, 1, 11, 1.2, 4.3, 11.35, 1.2, 4.3, 11.05, 1.2, 4.3, 11.6, 1, 4.3, 11.05, 1, 4.3, 11.35, 1.2, 4.3, 11.35, 1.2, 4.3, 11.05, 1, 4.3, 11.05, 1.2, 1, 11.3, 1.2, 1, 11.4, 1, 4.3, 11.35, 1.2, 4.3, 11.35, 1.2, 1, 11.4, 1, 4.3, 11.6, 1, 1, 11, 1, 1, 11, 1.2, 4.3, 11.05, 1, 4.3, 11.05, 1, 1, 11, 1.2, 4.3, 11.05, 1.2, 0.1, 11.2, 1.1, 0.1, 8.7, 3.6, -0.1, 11.2, 1.1, -0.1, 11.2, 1.1, 0.1, 8.7, 3.6, -0.1, 8.7, 3.6, -0.1, 11.2, 1.1, -0.1, 8.7, 3.6, -0.1, 11.1, 1, -0.1, 11.1, 1, -0.1, 8.7, 3.6, -0.1, 8.6, 3.5, -0.1, 11.1, 1, -0.1, 8.6, 3.5, 0.1, 11.1, 1, 0.1, 11.1, 1, -0.1, 8.6, 3.5, 0.1, 8.6, 3.5, 0.1, 11.1, 1, 0.1, 8.6, 3.5, 0.1, 11.2, 1.1, 0.1, 11.2, 1.1, 0.1, 8.6, 3.5, 0.1, 8.7, 3.6, -0.1, 8.6, 3.5, -0.1, 8.7, 3.6, 0.1, 8.6, 3.5, 0.1, 8.6, 3.5, -0.1, 8.7, 3.6, 0.1, 8.7, 3.6, -1.9, 11.2, 1.1, -1.9, 8.7, 3.6, -2.1, 11.2, 1.1, -2.1, 11.2, 1.1, -1.9, 8.7, 3.6, -2.1, 8.7, 3.6, -2.1, 11.2, 1.1, -2.1, 8.7, 3.6, -2.1, 11.1, 1, -2.1, 11.1, 1, -2.1, 8.7, 3.6, -2.1, 8.6, 3.5, -2.1, 11.1, 1, -2.1, 8.6, 3.5, -1.9, 11.1, 1, -1.9, 11.1, 1, -2.1, 8.6, 3.5, -1.9, 8.6, 3.5, -1.9, 11.1, 1, -1.9, 8.6, 3.5, -1.9, 11.2, 1.1, -1.9, 11.2, 1.1, -1.9, 8.6, 3.5, -1.9, 8.7, 3.6, -2.1, 8.6, 3.5, -2.1, 8.7, 3.6, -1.9, 8.6, 3.5, -1.9, 8.6, 3.5, -2.1, 8.7, 3.6, -1.9, 8.7, 3.6, 2.1, 11.2, 1.1, 2.1, 8.7, 3.6, 1.9, 11.2, 1.1, 1.9, 11.2, 1.1, 2.1, 8.7, 3.6, 1.9, 8.7, 3.6, 1.9, 11.2, 1.1, 1.9, 8.7, 3.6, 1.9, 11.1, 1, 1.9, 11.1, 1, 1.9, 8.7, 3.6, 1.9, 8.6, 3.5, 1.9, 11.1, 1, 1.9, 8.6, 3.5, 2.1, 11.1, 1, 2.1, 11.1, 1, 1.9, 8.6, 3.5, 2.1, 8.6, 3.5, 2.1, 11.1, 1, 2.1, 8.6, 3.5, 2.1, 11.2, 1.1, 2.1, 11.2, 1.1, 2.1, 8.6, 3.5, 2.1, 8.7, 3.6, 1.9, 8.6, 3.5, 1.9, 8.7, 3.6, 2.1, 8.6, 3.5, 2.1, 8.6, 3.5, 1.9, 8.7, 3.6, 2.1, 8.7, 3.6, 4.1, 11.2, 1.1, 4.1, 8.7, 3.6, 3.9, 11.2, 1.1, 3.9, 11.2, 1.1, 4.1, 8.7, 3.6, 3.9, 8.7, 3.6, 3.9, 11.2, 1.1, 3.9, 8.7, 3.6, 3.9, 11.1, 1, 3.9, 11.1, 1, 3.9, 8.7, 3.6, 3.9, 8.6, 3.5, 3.9, 11.1, 1, 3.9, 8.6, 3.5, 4.1, 11.1, 1, 4.1, 11.1, 1, 3.9, 8.6, 3.5, 4.1, 8.6, 3.5, 4.1, 11.1, 1, 4.1, 8.6, 3.5, 4.1, 11.2, 1.1, 4.1, 11.2, 1.1, 4.1, 8.6, 3.5, 4.1, 8.7, 3.6, 3.9, 8.6, 3.5, 3.9, 8.7, 3.6, 4.1, 8.6, 3.5, 4.1, 8.6, 3.5, 3.9, 8.7, 3.6, 4.1, 8.7, 3.6, -1.9, 11.2, 1.1, -1.9, 9.2, 1.1, -2.1, 11.2, 1.1, -2.1, 11.2, 1.1, -1.9, 9.2, 1.1, -2.1, 9.2, 1.1, -1.9, 11.1, 1, -1.9, 9.2, 1, -1.9, 11.2, 1.1, -1.9, 11.2, 1.1, -1.9, 9.2, 1, -1.9, 9.2, 1.1, 4.1, 11, 1.1, 4.1, 9.2, 1.1, 3.9, 11, 1.1, 3.9, 11, 1.1, 4.1, 9.2, 1.1, 3.9, 9.2, 1.1, 4.1, 11, 1, 4.1, 9.2, 1, 4.1, 11, 1.1, 4.1, 11, 1.1, 4.1, 9.2, 1, 4.1, 9.2, 1.1, -2.1, 11.2, 1.1, -2.1, 9.2, 1.1, -2.1, 11.1, 1, -2.1, 11.1, 1, -2.1, 9.2, 1.1, -2.1, 9.2, 1, -0.1, 8.7, -1.6, 0.1, 8.7, -1.6, -0.1, 11.2, 0.9, -0.1, 11.2, 0.9, 0.1, 8.7, -1.6, 0.1, 11.2, 0.9, -0.1, 8.6, -1.5, -0.1, 8.7, -1.6, -0.1, 11.1, 1, -0.1, 11.1, 1, -0.1, 8.7, -1.6, -0.1, 11.2, 0.9, 0.1, 8.6, -1.5, -0.1, 8.6, -1.5, 0.1, 11.1, 1, 0.1, 11.1, 1, -0.1, 8.6, -1.5, -0.1, 11.1, 1, 0.1, 8.7, -1.6, 0.1, 8.6, -1.5, 0.1, 11.2, 0.9, 0.1, 11.2, 0.9, 0.1, 8.6, -1.5, 0.1, 11.1, 1, 0.1, 8.7, -1.6, -0.1, 8.7, -1.6, 0.1, 8.6, -1.5, 0.1, 8.6, -1.5, -0.1, 8.7, -1.6, -0.1, 8.6, -1.5, -2.1, 8.7, -1.6, -1.9, 8.7, -1.6, -2.1, 11.2, 0.9, -2.1, 11.2, 0.9, -1.9, 8.7, -1.6, -1.9, 11.2, 0.9, -2.1, 8.6, -1.5, -2.1, 8.7, -1.6, -2.1, 11.1, 1, -2.1, 11.1, 1, -2.1, 8.7, -1.6, -2.1, 11.2, 0.9, -1.9, 8.6, -1.5, -2.1, 8.6, -1.5, -1.9, 11.1, 1, -1.9, 11.1, 1, -2.1, 8.6, -1.5, -2.1, 11.1, 1, -1.9, 8.7, -1.6, -1.9, 8.6, -1.5, -1.9, 11.2, 0.9, -1.9, 11.2, 0.9, -1.9, 8.6, -1.5, -1.9, 11.1, 1, -1.9, 8.7, -1.6, -2.1, 8.7, -1.6, -1.9, 8.6, -1.5, -1.9, 8.6, -1.5, -2.1, 8.7, -1.6, -2.1, 8.6, -1.5, 1.9, 8.7, -1.6, 2.1, 8.7, -1.6, 1.9, 11.2, 0.9, 1.9, 11.2, 0.9, 2.1, 8.7, -1.6, 2.1, 11.2, 0.9, 1.9, 8.6, -1.5, 1.9, 8.7, -1.6, 1.9, 11.1, 1, 1.9, 11.1, 1, 1.9, 8.7, -1.6, 1.9, 11.2, 0.9, 2.1, 8.6, -1.5, 1.9, 8.6, -1.5, 2.1, 11.1, 1, 2.1, 11.1, 1, 1.9, 8.6, -1.5, 1.9, 11.1, 1, 2.1, 8.7, -1.6, 2.1, 8.6, -1.5, 2.1, 11.2, 0.9, 2.1, 11.2, 0.9, 2.1, 8.6, -1.5, 2.1, 11.1, 1, 2.1, 8.7, -1.6, 1.9, 8.7, -1.6, 2.1, 8.6, -1.5, 2.1, 8.6, -1.5, 1.9, 8.7, -1.6, 1.9, 8.6, -1.5, 3.9, 8.7, -1.6, 4.1, 8.7, -1.6, 3.9, 11.2, 0.9, 3.9, 11.2, 0.9, 4.1, 8.7, -1.6, 4.1, 11.2, 0.9, 3.9, 8.6, -1.5, 3.9, 8.7, -1.6, 3.9, 11.1, 1, 3.9, 11.1, 1, 3.9, 8.7, -1.6, 3.9, 11.2, 0.9, 4.1, 8.6, -1.5, 3.9, 8.6, -1.5, 4.1, 11.1, 1, 4.1, 11.1, 1, 3.9, 8.6, -1.5, 3.9, 11.1, 1, 4.1, 8.7, -1.6, 4.1, 8.6, -1.5, 4.1, 11.2, 0.9, 4.1, 11.2, 0.9, 4.1, 8.6, -1.5, 4.1, 11.1, 1, 4.1, 8.7, -1.6, 3.9, 8.7, -1.6, 4.1, 8.6, -1.5, 4.1, 8.6, -1.5, 3.9, 8.7, -1.6, 3.9, 8.6, -1.5, -2.1, 9.2, 0.9, -1.9, 9.2, 0.9, -2.1, 11.2, 0.9, -2.1, 11.2, 0.9, -1.9, 9.2, 0.9, -1.9, 11.2, 0.9, -1.9, 9.2, 0.9, -1.9, 9.2, 1, -1.9, 11.2, 0.9, -1.9, 11.2, 0.9, -1.9, 9.2, 1, -1.9, 11.1, 1, 3.9, 9.2, 0.9, 4.1, 9.2, 0.9, 3.9, 11, 0.9, 3.9, 11, 0.9, 4.1, 9.2, 0.9, 4.1, 11, 0.9, 4.1, 9.2, 0.9, 4.1, 9.2, 1, 4.1, 11, 0.9, 4.1, 11, 0.9, 4.1, 9.2, 1, 4.1, 11, 1, -2.1, 9.2, 1, -2.1, 9.2, 0.9, -2.1, 11.1, 1, -2.1, 11.1, 1, -2.1, 9.2, 0.9, -2.1, 11.2, 0.9, -2, 9.2, 3, -2, 9.2, 1, -2, 11.2, 1, 4, 9.2, 1, 4, 9.2, 3, 4, 11.2, 1, 4, 9.2, -1, 4, 9.2, 1, 4, 11.2, 1, -2, 9.2, 1, -2, 9.2, -1, -2, 11.2, 1, 4.1, 9.2, -0.9, 3.9, 9.2, -0.9, 4.1, 9.2, -1.1, 4.1, 9.2, -1.1, 3.9, 9.2, -0.9, 3.9, 9.2, -1.1, 3.9, 9, -1.1, 3.9, 9, -0.9, 4.1, 9, -1.1, 4.1, 9, -1.1, 3.9, 9, -0.9, 4.1, 9, -0.9, 4.1, 9.2, -1.1, 3.9, 9.2, -1.1, 4.1, 9, -1.1, 4.1, 9, -1.1, 3.9, 9.2, -1.1, 3.9, 9, -1.1, 4.1, 9, -0.9, 3.9, 9, -0.9, 4.1, 9, 2.9, 4.1, 9, 2.9, 3.9, 9, -0.9, 3.9, 9, 2.9, 4.1, 9.2, -0.9, 4.1, 9.2, -1.1, 4.1, 9, -0.9, 4.1, 9, -0.9, 4.1, 9.2, -1.1, 4.1, 9, -1.1, 3.9, 9.2, 3.1, 3.9, 9, 3.1, -1.9, 9.2, 3.1, -1.9, 9.2, 3.1, 3.9, 9, 3.1, -1.9, 9, 3.1, 4.1, 9.2, 2.9, 4.1, 9, 2.9, 4.1, 9.2, 3.1, 4.1, 9.2, 3.1, 4.1, 9, 2.9, 4.1, 9, 3.1, 3.9, 9.2, -0.9, 4.1, 9.2, -0.9, 3.9, 9.2, 2.9, 3.9, 9.2, 2.9, 4.1, 9.2, -0.9, 4.1, 9.2, 2.9, 4.1, 9.2, -0.9, 4.1, 9, -0.9, 4.1, 9.2, 2.9, 4.1, 9.2, 2.9, 4.1, 9, -0.9, 4.1, 9, 2.9, 3.9, 9, -0.9, 3.9, 9.2, -0.9, 3.9, 9, 2.9, 3.9, 9, 2.9, 3.9, 9.2, -0.9, 3.9, 9.2, 2.9, 3.9, 9.2, 3.1, 4.1, 9.2, 3.1, 3.9, 9, 3.1, 3.9, 9, 3.1, 4.1, 9.2, 3.1, 4.1, 9, 3.1, 4.1, 9, 2.9, 3.9, 9, 2.9, 4.1, 9, 3.1, 4.1, 9, 3.1, 3.9, 9, 2.9, 3.9, 9, 3.1, 3.9, 9, 3.1, 3.9, 9, 2.9, -1.9, 9, 3.1, -1.9, 9, 3.1, 3.9, 9, 2.9, -1.9, 9, 2.9, 3.9, 9.2, 2.9, 4.1, 9.2, 2.9, 3.9, 9.2, 3.1, 3.9, 9.2, 3.1, 4.1, 9.2, 2.9, 4.1, 9.2, 3.1, -1.9, 9, -1.1, -1.9, 9.2, -1.1, -2.1, 9, -1.1, -2.1, 9, -1.1, -1.9, 9.2, -1.1, -2.1, 9.2, -1.1, -2.1, 9.2, 2.9, -2.1, 9, 2.9, -2.1, 9.2, -0.9, -2.1, 9.2, -0.9, -2.1, 9, 2.9, -2.1, 9, -0.9, 3.9, 9, -1.1, 3.9, 9.2, -1.1, -1.9, 9, -1.1, -1.9, 9, -1.1, 3.9, 9.2, -1.1, -1.9, 9.2, -1.1, 3.9, 9.2, 2.9, 3.9, 9.2, 3.1, -1.9, 9.2, 2.9, -1.9, 9.2, 2.9, 3.9, 9.2, 3.1, -1.9, 9.2, 3.1, 3.9, 9, -0.9, 3.9, 9, -1.1, -1.9, 9, -0.9, -1.9, 9, -0.9, 3.9, 9, -1.1, -1.9, 9, -1.1, 3.9, 9, 2.9, 3.9, 9.2, 2.9, -1.9, 9, 2.9, -1.9, 9, 2.9, 3.9, 9.2, 2.9, -1.9, 9.2, 2.9, 3.9, 9.2, -1.1, 3.9, 9.2, -0.9, -1.9, 9.2, -1.1, -1.9, 9.2, -1.1, 3.9, 9.2, -0.9, -1.9, 9.2, -0.9, 3.9, 9.2, -0.9, 3.9, 9, -0.9, -1.9, 9.2, -0.9, -1.9, 9.2, -0.9, 3.9, 9, -0.9, -1.9, 9, -0.9, -2.1, 9.2, -1.1, -2.1, 9.2, -0.9, -2.1, 9, -1.1, -2.1, 9, -1.1, -2.1, 9.2, -0.9, -2.1, 9, -0.9, -2.1, 9, 2.9, -2.1, 9.2, 2.9, -2.1, 9, 3.1, -2.1, 9, 3.1, -2.1, 9.2, 2.9, -2.1, 9.2, 3.1, -1.9, 9.2, -1.1, -1.9, 9.2, -0.9, -2.1, 9.2, -1.1, -2.1, 9.2, -1.1, -1.9, 9.2, -0.9, -2.1, 9.2, -0.9, -1.9, 9.2, 2.9, -1.9, 9.2, 3.1, -2.1, 9.2, 2.9, -2.1, 9.2, 2.9, -1.9, 9.2, 3.1, -2.1, 9.2, 3.1, -1.9, 9.2, 3.1, -1.9, 9, 3.1, -2.1, 9.2, 3.1, -2.1, 9.2, 3.1, -1.9, 9, 3.1, -2.1, 9, 3.1, -2.1, 9, 2.9, -1.9, 9, 2.9, -2.1, 9, -0.9, -2.1, 9, -0.9, -1.9, 9, 2.9, -1.9, 9, -0.9, -1.9, 9, -0.9, -1.9, 9, -1.1, -2.1, 9, -0.9, -2.1, 9, -0.9, -1.9, 9, -1.1, -2.1, 9, -1.1, -1.9, 9, 3.1, -1.9, 9, 2.9, -2.1, 9, 3.1, -2.1, 9, 3.1, -1.9, 9, 2.9, -2.1, 9, 2.9, -1.9, 9.2, 2.9, -2.1, 9.2, 2.9, -1.9, 9.2, -0.9, -1.9, 9.2, -0.9, -2.1, 9.2, 2.9, -2.1, 9.2, -0.9, -1.9, 9, 2.9, -1.9, 9.2, 2.9, -1.9, 9, -0.9, -1.9, 9, -0.9, -1.9, 9.2, 2.9, -1.9, 9.2, -0.9, -1.6, 10.5998, 1.8, -1, 11.1, 1.3, -1.6, 10.5998, 2.8, -1.6, 10.5998, 2.8, -1, 11.1, 1.3, -1, 11.2996, 2.8, -1.6, 10.5998, 2.8, -1, 11.2996, 2.8, -1.6, 10.4002, 2.8, -1.6, 10.4002, 2.8, -1, 11.2996, 2.8, -1, 11.1, 2.8, -1.6, 10.4002, 2.8, -1.6, 10.4002, 1.8, -1.6, 10.5998, 2.8, -1.6, 10.5998, 2.8, -1.6, 10.4002, 1.8, -1.6, 10.5998, 1.8, -0.4, 10.4002, 1.8, -0.4, 10.4002, 2.8, -0.4, 10.5998, 1.8, -0.4, 10.5998, 1.8, -0.4, 10.4002, 2.8, -0.4, 10.5998, 2.8, -0.4, 10.4002, 2.8, -1, 11.1, 2.8, -0.4, 10.5998, 2.8, -0.4, 10.5998, 2.8, -1, 11.1, 2.8, -1, 11.2996, 2.8, -0.4, 10.5998, 2.8, -1, 11.2996, 2.8, -0.4, 10.5998, 1.8, -0.4, 10.5998, 1.8, -1, 11.2996, 2.8, -1, 11.1, 1.3, -1, 10.9, 1.3, -1, 11.1, 2.8, -0.4, 10.4002, 1.8, -0.4, 10.4002, 1.8, -1, 11.1, 2.8, -0.4, 10.4002, 2.8, -1.6, 10.4002, 1.8, -1.6, 10.4002, 2.8, -1, 10.9, 1.3, -1, 10.9, 1.3, -1.6, 10.4002, 2.8, -1, 11.1, 2.8, 3, 11.2996, 2.8, 3, 11.1, 1.3, 3.6, 10.5998, 2.8, 3.6, 10.5998, 2.8, 3, 11.1, 1.3, 3.6, 10.5998, 1.8, 3, 11.1, 2.8, 3, 11.2996, 2.8, 3.6, 10.4002, 2.8, 3.6, 10.4002, 2.8, 3, 11.2996, 2.8, 3.6, 10.5998, 2.8, 3.6, 10.5998, 1.8, 3.6, 10.4002, 1.8, 3.6, 10.5998, 2.8, 3.6, 10.5998, 2.8, 3.6, 10.4002, 1.8, 3.6, 10.4002, 2.8, 2.4, 10.5998, 2.8, 2.4, 10.4002, 2.8, 2.4, 10.5998, 1.8, 2.4, 10.5998, 1.8, 2.4, 10.4002, 2.8, 2.4, 10.4002, 1.8, 3, 11.2996, 2.8, 3, 11.1, 2.8, 2.4, 10.5998, 2.8, 2.4, 10.5998, 2.8, 3, 11.1, 2.8, 2.4, 10.4002, 2.8, 3, 11.1, 1.3, 3, 11.2996, 2.8, 2.4, 10.5998, 1.8, 2.4, 10.5998, 1.8, 3, 11.2996, 2.8, 2.4, 10.5998, 2.8, 2.4, 10.4002, 2.8, 3, 11.1, 2.8, 2.4, 10.4002, 1.8, 2.4, 10.4002, 1.8, 3, 11.1, 2.8, 3, 10.9, 1.3, 3, 11.1, 2.8, 3.6, 10.4002, 2.8, 3, 10.9, 1.3, 3, 10.9, 1.3, 3.6, 10.4002, 2.8, 3.6, 10.4002, 1.8, -1, 11.2996, -0.8, -1, 11.1, 0.7, -1.6, 10.5998, -0.8, -1.6, 10.5998, -0.8, -1, 11.1, 0.7, -1.6, 10.5998, 0.2, -1, 11.1, -0.8, -1, 11.2996, -0.8, -1.6, 10.4002, -0.8, -1.6, 10.4002, -0.8, -1, 11.2996, -0.8, -1.6, 10.5998, -0.8, -1.6, 10.5998, 0.2, -1.6, 10.4002, 0.2, -1.6, 10.5998, -0.8, -1.6, 10.5998, -0.8, -1.6, 10.4002, 0.2, -1.6, 10.4002, -0.8, -0.4, 10.5998, -0.8, -0.4, 10.4002, -0.8, -0.4, 10.5998, 0.2, -0.4, 10.5998, 0.2, -0.4, 10.4002, -0.8, -0.4, 10.4002, 0.2, -1, 11.2996, -0.8, -1, 11.1, -0.8, -0.4, 10.5998, -0.8, -0.4, 10.5998, -0.8, -1, 11.1, -0.8, -0.4, 10.4002, -0.8, -1, 11.1, 0.7, -1, 11.2996, -0.8, -0.4, 10.5998, 0.2, -0.4, 10.5998, 0.2, -1, 11.2996, -0.8, -0.4, 10.5998, -0.8, -0.4, 10.4002, -0.8, -1, 11.1, -0.8, -0.4, 10.4002, 0.2, -0.4, 10.4002, 0.2, -1, 11.1, -0.8, -1, 10.9, 0.7, -1, 11.1, -0.8, -1.6, 10.4002, -0.8, -1, 10.9, 0.7, -1, 10.9, 0.7, -1.6, 10.4002, -0.8, -1.6, 10.4002, 0.2, 3.6, 10.5998, 0.2, 3, 11.1, 0.7, 3.6, 10.5998, -0.8, 3.6, 10.5998, -0.8, 3, 11.1, 0.7, 3, 11.2996, -0.8, 3.6, 10.5998, -0.8, 3, 11.2996, -0.8, 3.6, 10.4002, -0.8, 3.6, 10.4002, -0.8, 3, 11.2996, -0.8, 3, 11.1, -0.8, 3.6, 10.4002, -0.8, 3.6, 10.4002, 0.2, 3.6, 10.5998, -0.8, 3.6, 10.5998, -0.8, 3.6, 10.4002, 0.2, 3.6, 10.5998, 0.2, 2.4, 10.4002, 0.2, 2.4, 10.4002, -0.8, 2.4, 10.5998, 0.2, 2.4, 10.5998, 0.2, 2.4, 10.4002, -0.8, 2.4, 10.5998, -0.8, 2.4, 10.4002, -0.8, 3, 11.1, -0.8, 2.4, 10.5998, -0.8, 2.4, 10.5998, -0.8, 3, 11.1, -0.8, 3, 11.2996, -0.8, 2.4, 10.5998, -0.8, 3, 11.2996, -0.8, 2.4, 10.5998, 0.2, 2.4, 10.5998, 0.2, 3, 11.2996, -0.8, 3, 11.1, 0.7, 3, 10.9, 0.7, 3, 11.1, -0.8, 2.4, 10.4002, 0.2, 2.4, 10.4002, 0.2, 3, 11.1, -0.8, 2.4, 10.4002, -0.8, 3.6, 10.4002, 0.2, 3.6, 10.4002, -0.8, 3, 10.9, 0.7, 3, 10.9, 0.7, 3.6, 10.4002, -0.8, 3, 11.1, -0.8, 4.025, 0.3349, -0.9762, 4.025, 0.1482, -0.9046, 4.025, 1.0518, 0.8909, 4.025, 1.0518, 0.8909, 4.025, 0.1482, -0.9046, 4.025, 0.8651, 0.9626, 4.025, 0.1482, -0.9046, 3.975, 0.1482, -0.9046, 4.025, 0.8651, 0.9626, 4.025, 0.8651, 0.9626, 3.975, 0.1482, -0.9046, 3.975, 0.8651, 0.9626, 3.975, 0.3349, -0.9762, 4.025, 0.3349, -0.9762, 3.975, 1.0518, 0.8909, 3.975, 1.0518, 0.8909, 4.025, 0.3349, -0.9762, 4.025, 1.0518, 0.8909, 0.1247, 1.0939, -3.025, 0.0443, 0.9108, -3.025, 1.9557, 0.2892, -3.025, 1.9557, 0.2892, -3.025, 0.0443, 0.9108, -3.025, 1.8753, 0.1061, -3.025, 0.0443, 0.9108, -3.025, 0.0443, 0.9108, -2.975, 1.8753, 0.1061, -3.025, 1.8753, 0.1061, -3.025, 0.0443, 0.9108, -2.975, 1.8753, 0.1061, -2.975, 0.1247, 1.0939, -2.975, 0.1247, 1.0939, -3.025, 1.9557, 0.2892, -2.975, 1.9557, 0.2892, -2.975, 0.1247, 1.0939, -3.025, 1.9557, 0.2892, -3.025, -1.9694, 0.3349, -3.025, -1.8977, 0.1482, -3.025, -0.1023, 1.0518, -3.025, -0.1023, 1.0518, -3.025, -1.8977, 0.1482, -3.025, -0.0306, 0.8651, -3.025, -1.8977, 0.1482, -3.025, -1.8977, 0.1482, -2.975, -0.0306, 0.8651, -3.025, -0.0306, 0.8651, -3.025, -1.8977, 0.1482, -2.975, -0.0306, 0.8651, -2.975, -1.9694, 0.3349, -2.975, -1.9694, 0.3349, -3.025, -0.1023, 1.0518, -2.975, -0.1023, 1.0518, -2.975, -1.9694, 0.3349, -3.025, -0.1023, 1.0518, -3.025, 2.0306, 0.3349, -3.025, 2.1023, 0.1482, -3.025, 3.8977, 1.0518, -3.025, 3.8977, 1.0518, -3.025, 2.1023, 0.1482, -3.025, 3.9694, 0.8651, -3.025, 2.1023, 0.1482, -3.025, 2.1023, 0.1482, -2.975, 3.9694, 0.8651, -3.025, 3.9694, 0.8651, -3.025, 2.1023, 0.1482, -2.975, 3.9694, 0.8651, -2.975, 2.0306, 0.3349, -2.975, 2.0306, 0.3349, -3.025, 3.8977, 1.0518, -2.975, 3.8977, 1.0518, -2.975, 2.0306, 0.3349, -3.025, 3.8977, 1.0518, -3.025, 4.025, 1.0939, -2.8821, 4.025, 0.9108, -2.9626, 4.025, 0.2892, -1.0511, 4.025, 0.2892, -1.0511, 4.025, 0.9108, -2.9626, 4.025, 0.1061, -1.1316, 4.025, 0.9108, -2.9626, 3.975, 0.9108, -2.9626, 4.025, 0.1061, -1.1316, 4.025, 0.1061, -1.1316, 3.975, 0.9108, -2.9626, 3.975, 0.1061, -1.1316, 3.975, 1.0939, -2.8821, 4.025, 1.0939, -2.8821, 3.975, 0.2892, -1.0511, 3.975, 0.2892, -1.0511, 4.025, 1.0939, -2.8821, 4.025, 0.2892, -1.0511, -0.0528, 0.2641, 3.05, -0.1381, 0.0832, 3.05, -1.8619, 1.1168, 3.05, -1.8619, 1.1168, 3.05, -0.1381, 0.0832, 3.05, -1.9472, 0.9359, 3.05, -0.1381, 0.0832, 3.05, -0.1381, 0.0832, 3, -1.9472, 0.9359, 3.05, -1.9472, 0.9359, 3.05, -0.1381, 0.0832, 3, -1.9472, 0.9359, 3, -0.0528, 0.2641, 3, -0.0528, 0.2641, 3.05, -1.8619, 1.1168, 3, -1.8619, 1.1168, 3, -0.0528, 0.2641, 3.05, -1.8619, 1.1168, 3.05, 1.8813, 1.0831, 3.05, 1.9595, 0.899, 3.05, 0.0405, 0.301, 3.05, 0.0405, 0.301, 3.05, 1.9595, 0.899, 3.05, 0.1187, 0.1169, 3.05, 1.9595, 0.899, 3.05, 1.9595, 0.899, 3, 0.1187, 0.1169, 3.05, 0.1187, 0.1169, 3.05, 1.9595, 0.899, 3, 0.1187, 0.1169, 3, 1.8813, 1.0831, 3, 1.8813, 1.0831, 3.05, 0.0405, 0.301, 3, 0.0405, 0.301, 3, 1.8813, 1.0831, 3.05, 0.0405, 0.301, 3.05, -2.1068, 1.0607, 3.05, -2.0333, 0.8747, 3.05, -3.9667, 0.3253, 3.05, -3.9667, 0.3253, 3.05, -2.0333, 0.8747, 3.05, -3.8932, 0.1393, 3.05, -2.0333, 0.8747, 3.05, -2.0333, 0.8747, 3, -3.8932, 0.1393, 3.05, -3.8932, 0.1393, 3.05, -2.0333, 0.8747, 3, -3.8932, 0.1393, 3, -2.1068, 1.0607, 3, -2.1068, 1.0607, 3.05, -3.9667, 0.3253, 3, -3.9667, 0.3253, 3, -2.1068, 1.0607, 3.05, -3.9667, 0.3253, 3.05, -4.05, 0.2477, 2.9412, -4.05, 0.0683, 2.8528, -4.05, 1.1317, 1.1472, -4.05, 1.1317, 1.1472, -4.05, 0.0683, 2.8528, -4.05, 0.9523, 1.0588, -4.05, 0.0683, 2.8528, -4, 0.0683, 2.8528, -4.05, 0.9523, 1.0588, -4.05, 0.9523, 1.0588, -4, 0.0683, 2.8528, -4, 0.9523, 1.0588, -4, 0.2477, 2.9412, -4.05, 0.2477, 2.9412, -4, 1.1317, 1.1472, -4, 1.1317, 1.1472, -4.05, 0.2477, 2.9412, -4.05, 1.1317, 1.1472, -4.05, 1.0663, 0.8903, -4.05, 0.8808, 0.965, -4.05, 0.3192, -0.965, -4.05, 0.3192, -0.965, -4.05, 0.8808, 0.965, -4.05, 0.1337, -0.8903, -4.05, 0.8808, 0.965, -4, 0.8808, 0.965, -4.05, 0.1337, -0.8903, -4.05, 0.1337, -0.8903, -4, 0.8808, 0.965, -4, 0.1337, -0.8903, -4, 1.0663, 0.8903, -4.05, 1.0663, 0.8903, -4, 0.3192, -0.965, -4, 0.3192, -0.965, -4.05, 1.0663, 0.8903, -4.05, 0.3192, -0.965, 0.0831, 3.1296, -3.025, -0.0562, 2.9861, -3.025, 2.0562, 1.2139, -3.025, 2.0562, 1.2139, -3.025, -0.0562, 2.9861, -3.025, 1.9169, 1.0704, -3.025, -0.0562, 2.9861, -3.025, -0.0562, 2.9861, -2.975, 1.9169, 1.0704, -3.025, 1.9169, 1.0704, -3.025, -0.0562, 2.9861, -2.975, 1.9169, 1.0704, -2.975, 0.0831, 3.1296, -2.975, 0.0831, 3.1296, -3.025, 2.0562, 1.2139, -2.975, 2.0562, 1.2139, -2.975, 0.0831, 3.1296, -3.025, 2.0562, 1.2139, -3.025, -3.9169, 3.1296, -3.025, -4.0562, 2.9861, -3.025, -1.9438, 1.2139, -3.025, -1.9438, 1.2139, -3.025, -4.0562, 2.9861, -3.025, -2.0831, 1.0704, -3.025, -4.0562, 2.9861, -3.025, -4.0562, 2.9861, -2.975, -2.0831, 1.0704, -3.025, -2.0831, 1.0704, -3.025, -4.0562, 2.9861, -2.975, -2.0831, 1.0704, -2.975, -3.9169, 3.1296, -2.975, -3.9169, 3.1296, -3.025, -1.9438, 1.2139, -2.975, -1.9438, 1.2139, -2.975, -3.9169, 3.1296, -3.025, -1.9438, 1.2139, -3.025, 0.0783, 1.241, 3.05, -0.0574, 1.094, 3.05, -1.9426, 3.106, 3.05, -1.9426, 3.106, 3.05, -0.0574, 1.094, 3.05, -2.0783, 2.959, 3.05, -0.0574, 1.094, 3.05, -0.0574, 1.094, 3, -2.0783, 2.959, 3.05, -2.0783, 2.959, 3.05, -0.0574, 1.094, 3, -2.0783, 2.959, 3, 0.0783, 1.241, 3, 0.0783, 1.241, 3.05, -1.9426, 3.106, 3, -1.9426, 3.106, 3, 0.0783, 1.241, 3.05, -1.9426, 3.106, 3.05, -4.05, 0.2979, -1.0415, -4.05, 0.1141, -1.1203, -4.05, 1.0859, -2.8797, -4.05, 1.0859, -2.8797, -4.05, 0.1141, -1.1203, -4.05, 0.9021, -2.9585, -4.05, 0.1141, -1.1203, -4, 0.1141, -1.1203, -4.05, 0.9021, -2.9585, -4.05, 0.9021, -2.9585, -4, 0.1141, -1.1203, -4, 0.9021, -2.9585, -4, 0.2979, -1.0415, -4.05, 0.2979, -1.0415, -4, 1.0859, -2.8797, -4, 1.0859, -2.8797, -4.05, 0.2979, -1.0415, -4.05, 1.0859, -2.8797, -3.8967, 1.0537, -3.025, -3.9688, 0.8672, -3.025, -2.0312, 0.3328, -3.025, -2.0312, 0.3328, -3.025, -3.9688, 0.8672, -3.025, -2.1033, 0.1463, -3.025, -3.9688, 0.8672, -3.025, -3.9688, 0.8672, -2.975, -2.1033, 0.1463, -3.025, -2.1033, 0.1463, -3.025, -3.9688, 0.8672, -2.975, -2.1033, 0.1463, -2.975, -3.8967, 1.0537, -2.975, -3.8967, 1.0537, -3.025, -2.0312, 0.3328, -2.975, -2.0312, 0.3328, -2.975, -3.8967, 1.0537, -3.025, -2.0312, 0.3328, -3.025, 4.025, 1.0961, 1.126, 4.025, 0.9133, 1.0451, 4.025, 0.2867, 2.9549, 4.025, 0.2867, 2.9549, 4.025, 0.9133, 1.0451, 4.025, 0.1039, 2.874, 4.025, 0.9133, 1.0451, 3.975, 0.9133, 1.0451, 4.025, 0.1039, 2.874, 4.025, 0.1039, 2.874, 3.975, 0.9133, 1.0451, 3.975, 0.1039, 2.874, 3.975, 1.0961, 1.126, 4.025, 1.0961, 1.126, 3.975, 0.2867, 2.9549, 3.975, 0.2867, 2.9549, 4.025, 1.0961, 1.126, 4.025, 0.2867, 2.9549, 3.9647, 0.3184, 3.05, 3.8899, 0.133, 3.05, 2.1101, 1.067, 3.05, 2.1101, 1.067, 3.05, 3.8899, 0.133, 3.05, 2.0353, 0.8816, 3.05, 3.8899, 0.133, 3.05, 3.8899, 0.133, 3, 2.0353, 0.8816, 3.05, 2.0353, 0.8816, 3.05, 3.8899, 0.133, 3, 2.0353, 0.8816, 3, 3.9647, 0.3184, 3, 3.9647, 0.3184, 3.05, 2.1101, 1.067, 3, 2.1101, 1.067, 3, 3.9647, 0.3184, 3.05, 2.1101, 1.067, 3.05, -4.025, 3.1296, -1.0831, -4.025, 2.9861, -0.9438, -4.025, 1.2139, -3.0562, -4.025, 1.2139, -3.0562, -4.025, 2.9861, -0.9438, -4.025, 1.0704, -2.9169, -4.025, 2.9861, -0.9438, -3.975, 2.9861, -0.9438, -4.025, 1.0704, -2.9169, -4.025, 1.0704, -2.9169, -3.975, 2.9861, -0.9438, -3.975, 1.0704, -2.9169, -3.975, 3.1296, -1.0831, -4.025, 3.1296, -1.0831, -3.975, 1.2139, -3.0562, -3.975, 1.2139, -3.0562, -4.025, 3.1296, -1.0831, -4.025, 1.2139, -3.0562, -4.025, 3.1296, 2.9169, -4.025, 2.9861, 3.0562, -4.025, 1.2139, 0.9438, -4.025, 1.2139, 0.9438, -4.025, 2.9861, 3.0562, -4.025, 1.0704, 1.0831, -4.025, 2.9861, 3.0562, -3.975, 2.9861, 3.0562, -4.025, 1.0704, 1.0831, -4.025, 1.0704, 1.0831, -3.975, 2.9861, 3.0562, -3.975, 1.0704, 1.0831, -3.975, 3.1296, 2.9169, -4.025, 3.1296, 2.9169, -3.975, 1.2139, 0.9438, -3.975, 1.2139, 0.9438, -4.025, 3.1296, 2.9169, -4.025, 1.2139, 0.9438, 4.025, 3.1296, 1.0831, 4.025, 2.9861, 0.9438, 4.025, 1.2139, 3.0562, 4.025, 1.2139, 3.0562, 4.025, 2.9861, 0.9438, 4.025, 1.0704, 2.9169, 4.025, 2.9861, 0.9438, 3.975, 2.9861, 0.9438, 4.025, 1.0704, 2.9169, 4.025, 1.0704, 2.9169, 3.975, 2.9861, 0.9438, 3.975, 1.0704, 2.9169, 3.975, 3.1296, 1.0831, 4.025, 3.1296, 1.0831, 3.975, 1.2139, 3.0562, 3.975, 1.2139, 3.0562, 4.025, 3.1296, 1.0831, 4.025, 1.2139, 3.0562, 4.025, 3.1296, -2.9169, 4.025, 2.9861, -3.0562, 4.025, 1.2139, -0.9438, 4.025, 1.2139, -0.9438, 4.025, 2.9861, -3.0562, 4.025, 1.0704, -1.0831, 4.025, 2.9861, -3.0562, 3.975, 2.9861, -3.0562, 4.025, 1.0704, -1.0831, 4.025, 1.0704, -1.0831, 3.975, 2.9861, -3.0562, 3.975, 1.0704, -1.0831, 3.975, 3.1296, -2.9169, 4.025, 3.1296, -2.9169, 3.975, 1.2139, -0.9438, 3.975, 1.2139, -0.9438, 4.025, 3.1296, -2.9169, 4.025, 1.2139, -0.9438, 0, 1.1, 3, -2, 1.1, 3, 0, 3, 3, 0, 3, 3, -2, 1.1, 3, -2, 3, 3, 2, 0.1, 3, 2, 1.1, 3, 4, 0.1, 3, 4, 0.1, 3, 2, 1.1, 3, 4, 1.1, 3, -4, 1.1, 1, -4, 1.1, -1, -4, 3, 1, -4, 3, 1, -4, 1.1, -1, -4, 3, -1, -4, 1.1, 3, -4, 1.1, 1, -4, 3, 3, -4, 3, 3, -4, 1.1, 1, -4, 3, 1, 2, 1.1, 3, 0, 1.1, 3, 2, 3, 3, 2, 3, 3, 0, 1.1, 3, 0, 3, 3, -2, 1.1, 3, -4, 1.1, 3, -2, 3, 3, -2, 3, 3, -4, 1.1, 3, -4, 3, 3, -2, 0.1, 3, -4, 0.1, 3, -2, 1.1, 3, -2, 1.1, 3, -4, 0.1, 3, -4, 1.1, 3, 2, 0.1, 3, 0, 0.1, 3, 2, 1.1, 3, 2, 1.1, 3, 0, 0.1, 3, 0, 1.1, 3, -4, 0.1, 3, -4, 0.1, 1, -4, 1.1, 3, -4, 1.1, 3, -4, 0.1, 1, -4, 1.1, 1, -4, 0.1, 1, -4, 0.1, -1, -4, 1.1, 1, -4, 1.1, 1, -4, 0.1, -1, -4, 1.1, -1, -4, 1.1, -1, -4, 0.1, -1, -4, 1.1, -3, -4, 1.1, -3, -4, 0.1, -1, -4, 0.1, -3, 0, 0.1, 3, -2, 0.1, 3, 0, 1.1, 3, 0, 1.1, 3, -2, 0.1, 3, -2, 1.1, 3, 4, 1.1, 1, 4, 1.1, 3, 4, 3, 1, 4, 3, 1, 4, 1.1, 3, 4, 3, 3, 4, 1.1, -1, 4, 1.1, 1, 4, 3, -1, 4, 3, -1, 4, 1.1, 1, 4, 3, 1, 4, 0.1, -1, 4, 0.1, 1, 4, 1.1, -1, 4, 1.1, -1, 4, 0.1, 1, 4, 1.1, 1, 4, 0.1, 1, 4, 0.1, 3, 4, 1.1, 1, 4, 1.1, 1, 4, 0.1, 3, 4, 1.1, 3, 4, 1.1, -1, 4, 3, -1, 4, 1.1, -3, 4, 1.1, -3, 4, 3, -1, 4, 3, -3, 2, 1.1, 3, 2, 3, 3, 4, 1.1, 3, 4, 1.1, 3, 2, 3, 3, 4, 3, 3, 0, 1.1, -3, 2, 1.1, -3, 0, 3, -3, 0, 3, -3, 2, 1.1, -3, 2, 3, -3, -2, 1.1, -3, 0, 1.1, -3, -2, 3, -3, -2, 3, -3, 0, 1.1, -3, 0, 3, -3, -4, 1.1, -3, -2, 1.1, -3, -4, 3, -3, -4, 3, -3, -2, 1.1, -3, -2, 3, -3, -4, 0.1, -3, -2, 0.1, -3, -4, 1.1, -3, -4, 1.1, -3, -2, 0.1, -3, -2, 1.1, -3, 2, 3, -3, 2, 1.1, -3, 4, 3, -3, 4, 3, -3, 2, 1.1, -3, 4, 1.1, -3, -2, 0.1, -3, 0, 0.1, -3, -2, 1.1, -3, -2, 1.1, -3, 0, 0.1, -3, 0, 1.1, -3, 0, 0.1, -3, 2, 0.1, -3, 0, 1.1, -3, 0, 1.1, -3, 2, 0.1, -3, 2, 1.1, -3, 2, 1.1, -3, 2, 0.1, -3, 4, 1.1, -3, 4, 1.1, -3, 2, 0.1, -3, 4, 0.1, -3, 4, 0.1, -1, 4, 1.1, -1, 4, 0.1, -3, 4, 0.1, -3, 4, 1.1, -1, 4, 1.1, -3, -4, 3, -1, -4, 1.1, -1, -4, 3, -3, -4, 3, -3, -4, 1.1, -1, -4, 1.1, -3, -2.1, 3, -2.9, -2.1, 0.2, -2.9, -2.1, 3, -3.1, -2.1, 3, -3.1, -2.1, 0.2, -2.9, -2.1, 0.2, -3.1, -2.1, 3, -3.1, -2.1, 0.2, -3.1, -1.9, 3, -3.1, -1.9, 3, -3.1, -2.1, 0.2, -3.1, -1.9, 0.2, -3.1, -1.9, 3, -3.1, -1.9, 0.2, -3.1, -1.9, 3, -2.9, -1.9, 3, -2.9, -1.9, 0.2, -3.1, -1.9, 0.2, -2.9, -3.9, 3, -0.9, -3.9, 0.2, -0.9, -4.1, 3, -0.9, -4.1, 3, -0.9, -3.9, 0.2, -0.9, -4.1, 0.2, -0.9, -4.1, 3, -0.9, -4.1, 0.2, -0.9, -4.1, 3, -1.1, -4.1, 3, -1.1, -4.1, 0.2, -0.9, -4.1, 0.2, -1.1, -4.1, 3, -1.1, -4.1, 0.2, -1.1, -3.9, 3, -1.1, -3.9, 3, -1.1, -4.1, 0.2, -1.1, -3.9, 0.2, -1.1, -3.9, 3, -1.1, -3.9, 0.2, -1.1, -3.9, 3, -0.9, -3.9, 3, -0.9, -3.9, 0.2, -1.1, -3.9, 0.2, -0.9, -4.1, 3, 0.9, -4.1, 0.2, 0.9, -3.9, 3, 0.9, -3.9, 3, 0.9, -4.1, 0.2, 0.9, -3.9, 0.2, 0.9, 0.1, 0.2, -3.1, 0.1, 0.2, -2.9, 0.1, 3, -3.1, 0.1, 3, -3.1, 0.1, 0.2, -2.9, 0.1, 3, -2.9, -0.1, 0.2, -3.1, 0.1, 0.2, -3.1, -0.1, 3, -3.1, -0.1, 3, -3.1, 0.1, 0.2, -3.1, 0.1, 3, -3.1, -0.1, 0.2, -2.9, -0.1, 0.2, -3.1, -0.1, 3, -2.9, -0.1, 3, -2.9, -0.1, 0.2, -3.1, -0.1, 3, -3.1, 4.1, 0.2, -2.9, 3.9, 0.2, -2.9, 4.1, 3, -2.9, 4.1, 3, -2.9, 3.9, 0.2, -2.9, 3.9, 3, -2.9, 4.1, 0.2, -3.1, 4.1, 0.2, -2.9, 4.1, 3, -3.1, 4.1, 3, -3.1, 4.1, 0.2, -2.9, 4.1, 3, -2.9, 3.9, 0.2, -3.1, 4.1, 0.2, -3.1, 3.9, 3, -3.1, 3.9, 3, -3.1, 4.1, 0.2, -3.1, 4.1, 3, -3.1, 3.9, 0.2, -2.9, 3.9, 0.2, -3.1, 3.9, 3, -2.9, 3.9, 3, -2.9, 3.9, 0.2, -3.1, 3.9, 3, -3.1, 3.9, 0.2, 0.9, 4.1, 0.2, 0.9, 3.9, 3, 0.9, 3.9, 3, 0.9, 4.1, 0.2, 0.9, 4.1, 3, 0.9, -2.1, 0.2, 3.1, -2.1, 0.2, 2.9, -2.1, 3, 3.1, -2.1, 3, 3.1, -2.1, 0.2, 2.9, -2.1, 3, 2.9, -1.9, 0.2, 3.1, -2.1, 0.2, 3.1, -1.9, 3, 3.1, -1.9, 3, 3.1, -2.1, 0.2, 3.1, -2.1, 3, 3.1, -1.9, 0.2, 2.9, -1.9, 0.2, 3.1, -1.9, 3, 2.9, -1.9, 3, 2.9, -1.9, 0.2, 3.1, -1.9, 3, 3.1, -4.1, 0.2, 2.9, -3.9, 0.2, 2.9, -4.1, 3, 2.9, -4.1, 3, 2.9, -3.9, 0.2, 2.9, -3.9, 3, 2.9, -4.1, 0.2, 3.1, -4.1, 0.2, 2.9, -4.1, 3, 3.1, -4.1, 3, 3.1, -4.1, 0.2, 2.9, -4.1, 3, 2.9, -3.9, 0.2, 3.1, -4.1, 0.2, 3.1, -3.9, 3, 3.1, -3.9, 3, 3.1, -4.1, 0.2, 3.1, -4.1, 3, 3.1, -3.9, 0.2, 2.9, -3.9, 0.2, 3.1, -3.9, 3, 2.9, -3.9, 3, 2.9, -3.9, 0.2, 3.1, -3.9, 3, 3.1, -3.9, 0.2, 1.1, -4.1, 0.2, 1.1, -3.9, 3, 1.1, -3.9, 3, 1.1, -4.1, 0.2, 1.1, -4.1, 3, 1.1, 0.1, 3, 2.9, 0.1, 0.2, 2.9, 0.1, 3, 3.1, 0.1, 3, 3.1, 0.1, 0.2, 2.9, 0.1, 0.2, 3.1, 0.1, 3, 3.1, 0.1, 0.2, 3.1, -0.1, 3, 3.1, -0.1, 3, 3.1, 0.1, 0.2, 3.1, -0.1, 0.2, 3.1, -0.1, 3, 3.1, -0.1, 0.2, 3.1, -0.1, 3, 2.9, -0.1, 3, 2.9, -0.1, 0.2, 3.1, -0.1, 0.2, 2.9, 3.9, 3, 2.9, 3.9, 0.2, 2.9, 4.1, 3, 2.9, 4.1, 3, 2.9, 3.9, 0.2, 2.9, 4.1, 0.2, 2.9, 4.1, 3, 2.9, 4.1, 0.2, 2.9, 4.1, 3, 3.1, 4.1, 3, 3.1, 4.1, 0.2, 2.9, 4.1, 0.2, 3.1, 4.1, 3, 3.1, 4.1, 0.2, 3.1, 3.9, 3, 3.1, 3.9, 3, 3.1, 4.1, 0.2, 3.1, 3.9, 0.2, 3.1, 3.9, 3, 3.1, 3.9, 0.2, 3.1, 3.9, 3, 2.9, 3.9, 3, 2.9, 3.9, 0.2, 3.1, 3.9, 0.2, 2.9, 4.1, 3, 1.1, 4.1, 0.2, 1.1, 3.9, 3, 1.1, 3.9, 3, 1.1, 4.1, 0.2, 1.1, 3.9, 0.2, 1.1, -3.9, 3, -2.9, -3.9, 0.2, -2.9, -4.1, 3, -2.9, -4.1, 3, -2.9, -3.9, 0.2, -2.9, -4.1, 0.2, -2.9, -4.1, 3, -2.9, -4.1, 0.2, -2.9, -4.1, 3, -3.1, -4.1, 3, -3.1, -4.1, 0.2, -2.9, -4.1, 0.2, -3.1, -4.1, 3, -3.1, -4.1, 0.2, -3.1, -3.9, 3, -3.1, -3.9, 3, -3.1, -4.1, 0.2, -3.1, -3.9, 0.2, -3.1, -3.9, 3, -3.1, -3.9, 0.2, -3.1, -3.9, 3, -2.9, -3.9, 3, -2.9, -3.9, 0.2, -3.1, -3.9, 0.2, -2.9, 4.1, 3, 1.1, 4.1, 3, 0.9, 4.1, 0.2, 1.1, 4.1, 0.2, 1.1, 4.1, 3, 0.9, 4.1, 0.2, 0.9, 3.9, 0.2, -1.1, 4.1, 0.2, -1.1, 3.9, 3, -1.1, 3.9, 3, -1.1, 4.1, 0.2, -1.1, 4.1, 3, -1.1, 4.1, 3, -0.9, 4.1, 0.2, -0.9, 3.9, 3, -0.9, 3.9, 3, -0.9, 4.1, 0.2, -0.9, 3.9, 0.2, -0.9, 4.1, 3, -0.9, 4.1, 3, -1.1, 4.1, 0.2, -0.9, 4.1, 0.2, -0.9, 4.1, 3, -1.1, 4.1, 0.2, -1.1, 2.1, 3, 2.9, 2.1, 0.2, 2.9, 2.1, 3, 3.1, 2.1, 3, 3.1, 2.1, 0.2, 2.9, 2.1, 0.2, 3.1, 2.1, 3, 3.1, 2.1, 0.2, 3.1, 1.9, 3, 3.1, 1.9, 3, 3.1, 2.1, 0.2, 3.1, 1.9, 0.2, 3.1, 1.9, 3, 3.1, 1.9, 0.2, 3.1, 1.9, 3, 2.9, 1.9, 3, 2.9, 1.9, 0.2, 3.1, 1.9, 0.2, 2.9, -4.1, 0.2, 1.1, -4.1, 0.2, 0.9, -4.1, 3, 1.1, -4.1, 3, 1.1, -4.1, 0.2, 0.9, -4.1, 3, 0.9, 2.1, 0.2, -3.1, 2.1, 0.2, -2.9, 2.1, 3, -3.1, 2.1, 3, -3.1, 2.1, 0.2, -2.9, 2.1, 3, -2.9, 1.9, 0.2, -3.1, 2.1, 0.2, -3.1, 1.9, 3, -3.1, 1.9, 3, -3.1, 2.1, 0.2, -3.1, 2.1, 3, -3.1, 1.9, 0.2, -2.9, 1.9, 0.2, -3.1, 1.9, 3, -2.9, 1.9, 3, -2.9, 1.9, 0.2, -3.1, 1.9, 3, -3.1, -3.9, 1, -3.08, -3.9, 1.2, -3.08, -4.08, 1, -3.08, -4.08, 1, -3.08, -3.9, 1.2, -3.08, -4.08, 1.2, -3.08, -4.1, 0.2, 2.9, -4.1, 0.2, -2.9, -3.9, 0.2, 2.9, -3.9, 0.2, 2.9, -4.1, 0.2, -2.9, -3.9, 0.2, -2.9, 3.9, 1, -3.08, -3.9, 1, -3.08, 3.9, 1, -2.9, 3.9, 1, -2.9, -3.9, 1, -3.08, -3.9, 1, -2.9, 3.9, 1.2, 3.08, -3.9, 1.2, 3.08, 3.9, 1.2, 2.9, 3.9, 1.2, 2.9, -3.9, 1.2, 3.08, -3.9, 1.2, 2.9, 3.9, 1.2, -3.08, -3.9, 1.2, -3.08, 3.9, 1, -3.08, 3.9, 1, -3.08, -3.9, 1.2, -3.08, -3.9, 1, -3.08, -4.08, 1.2, -3.08, -4.08, 1.2, -2.9, -4.08, 1, -3.08, -4.08, 1, -3.08, -4.08, 1.2, -2.9, -4.08, 1, -2.9, -3.9, 1.2, -3.08, -3.9, 1.2, -2.9, -4.08, 1.2, -3.08, -4.08, 1.2, -3.08, -3.9, 1.2, -2.9, -4.08, 1.2, -2.9, -4.08, 1, 2.9, -4.08, 1, -2.9, -4.08, 1.2, 2.9, -4.08, 1.2, 2.9, -4.08, 1, -2.9, -4.08, 1.2, -2.9, -3.9, 1, -2.9, -3.9, 1, -3.08, -4.08, 1, -2.9, -4.08, 1, -2.9, -3.9, 1, -3.08, -4.08, 1, -3.08, -3.9, 1, 2.9, -3.9, 1, -2.9, -4.08, 1, 2.9, -4.08, 1, 2.9, -3.9, 1, -2.9, -4.08, 1, -2.9, -3.9, 0, -3.1, -3.9, 0.2, -3.1, -4.1, 0, -3.1, -4.1, 0, -3.1, -3.9, 0.2, -3.1, -4.1, 0.2, -3.1, 3.9, 0.2, 2.9, 3.9, 0.2, -2.9, 4.1, 0.2, 2.9, 4.1, 0.2, 2.9, 3.9, 0.2, -2.9, 4.1, 0.2, -2.9, 3.9, 1.2, -2.9, -3.9, 1.2, -2.9, 3.9, 1.2, -3.08, 3.9, 1.2, -3.08, -3.9, 1.2, -2.9, -3.9, 1.2, -3.08, 3.9, 0.2, -3.1, -3.9, 0.2, -3.1, 3.9, 0, -3.1, 3.9, 0, -3.1, -3.9, 0.2, -3.1, -3.9, 0, -3.1, 3.9, 0, -3.1, -3.9, 0, -3.1, 3.9, 0, -2.9, 3.9, 0, -2.9, -3.9, 0, -3.1, -3.9, 0, -2.9, -4.1, 0.2, -3.1, -4.1, 0.2, -2.9, -4.1, 0, -3.1, -4.1, 0, -3.1, -4.1, 0.2, -2.9, -4.1, 0, -2.9, -3.9, 0.2, -3.1, -3.9, 0.2, -2.9, -4.1, 0.2, -3.1, -4.1, 0.2, -3.1, -3.9, 0.2, -2.9, -4.1, 0.2, -2.9, -4.1, 0, 2.9, -4.1, 0, -2.9, -4.1, 0.2, 2.9, -4.1, 0.2, 2.9, -4.1, 0, -2.9, -4.1, 0.2, -2.9, -3.9, 0, -2.9, -3.9, 0, -3.1, -4.1, 0, -2.9, -4.1, 0, -2.9, -3.9, 0, -3.1, -4.1, 0, -3.1, -3.9, 0, 2.9, -3.9, 0, -2.9, -4.1, 0, 2.9, -4.1, 0, 2.9, -3.9, 0, -2.9, -4.1, 0, -2.9, 4.08, 1.2, -3.08, 3.9, 1.2, -3.08, 4.08, 1, -3.08, 4.08, 1, -3.08, 3.9, 1.2, -3.08, 3.9, 1, -3.08, 3.9, 0.2, -2.9, -3.9, 0.2, -2.9, 3.9, 0.2, -3.1, 3.9, 0.2, -3.1, -3.9, 0.2, -2.9, -3.9, 0.2, -3.1, 4.08, 1, -2.9, 4.08, 1.2, -2.9, 4.08, 1, -3.08, 4.08, 1, -3.08, 4.08, 1.2, -2.9, 4.08, 1.2, -3.08, 4.08, 1.2, -2.9, 3.9, 1.2, -2.9, 4.08, 1.2, -3.08, 4.08, 1.2, -3.08, 3.9, 1.2, -2.9, 3.9, 1.2, -3.08, 4.08, 1.2, 2.9, 4.08, 1.2, -2.9, 4.08, 1, 2.9, 4.08, 1, 2.9, 4.08, 1.2, -2.9, 4.08, 1, -2.9, 4.08, 1, -3.08, 3.9, 1, -3.08, 4.08, 1, -2.9, 4.08, 1, -2.9, 3.9, 1, -3.08, 3.9, 1, -2.9, 4.08, 1, 2.9, 4.08, 1, -2.9, 3.9, 1, 2.9, 3.9, 1, 2.9, 4.08, 1, -2.9, 3.9, 1, -2.9, 4.1, 0.2, -3.1, 3.9, 0.2, -3.1, 4.1, 0, -3.1, 4.1, 0, -3.1, 3.9, 0.2, -3.1, 3.9, 0, -3.1, 3.9, 1.2, 2.9, 3.9, 1.2, -2.9, 4.08, 1.2, 2.9, 4.08, 1.2, 2.9, 3.9, 1.2, -2.9, 4.08, 1.2, -2.9, 4.1, 0, -2.9, 4.1, 0.2, -2.9, 4.1, 0, -3.1, 4.1, 0, -3.1, 4.1, 0.2, -2.9, 4.1, 0.2, -3.1, 4.1, 0.2, -2.9, 3.9, 0.2, -2.9, 4.1, 0.2, -3.1, 4.1, 0.2, -3.1, 3.9, 0.2, -2.9, 3.9, 0.2, -3.1, 4.1, 0.2, 2.9, 4.1, 0.2, -2.9, 4.1, 0, 2.9, 4.1, 0, 2.9, 4.1, 0.2, -2.9, 4.1, 0, -2.9, 4.1, 0, -3.1, 3.9, 0, -3.1, 4.1, 0, -2.9, 4.1, 0, -2.9, 3.9, 0, -3.1, 3.9, 0, -2.9, 4.1, 0, 2.9, 4.1, 0, -2.9, 3.9, 0, 2.9, 3.9, 0, 2.9, 4.1, 0, -2.9, 3.9, 0, -2.9, -4.08, 1.2, 3.08, -3.9, 1.2, 3.08, -4.08, 1, 3.08, -4.08, 1, 3.08, -3.9, 1.2, 3.08, -3.9, 1, 3.08, 3.9, 1, 2.9, -3.9, 1, 2.9, 3.9, 1, 3.08, 3.9, 1, 3.08, -3.9, 1, 2.9, -3.9, 1, 3.08, 3.9, 0.2, 3.1, -3.9, 0.2, 3.1, 3.9, 0.2, 2.9, 3.9, 0.2, 2.9, -3.9, 0.2, 3.1, -3.9, 0.2, 2.9, 3.9, 1, 3.08, -3.9, 1, 3.08, 3.9, 1.2, 3.08, 3.9, 1.2, 3.08, -3.9, 1, 3.08, -3.9, 1.2, 3.08, -4.08, 1, 2.9, -4.08, 1.2, 2.9, -4.08, 1, 3.08, -4.08, 1, 3.08, -4.08, 1.2, 2.9, -4.08, 1.2, 3.08, -4.08, 1.2, 2.9, -3.9, 1.2, 2.9, -4.08, 1.2, 3.08, -4.08, 1.2, 3.08, -3.9, 1.2, 2.9, -3.9, 1.2, 3.08, -4.08, 1, 3.08, -3.9, 1, 3.08, -4.08, 1, 2.9, -4.08, 1, 2.9, -3.9, 1, 3.08, -3.9, 1, 2.9, -4.1, 0.2, 3.1, -3.9, 0.2, 3.1, -4.1, 0, 3.1, -4.1, 0, 3.1, -3.9, 0.2, 3.1, -3.9, 0, 3.1, 3.9, 0, 3.1, -3.9, 0, 3.1, 3.9, 0.2, 3.1, 3.9, 0.2, 3.1, -3.9, 0, 3.1, -3.9, 0.2, 3.1, 3.9, 0, 2.9, -3.9, 0, 2.9, 3.9, 0, 3.1, 3.9, 0, 3.1, -3.9, 0, 2.9, -3.9, 0, 3.1, -4.1, 0, 2.9, -4.1, 0.2, 2.9, -4.1, 0, 3.1, -4.1, 0, 3.1, -4.1, 0.2, 2.9, -4.1, 0.2, 3.1, -4.1, 0.2, 2.9, -3.9, 0.2, 2.9, -4.1, 0.2, 3.1, -4.1, 0.2, 3.1, -3.9, 0.2, 2.9, -3.9, 0.2, 3.1, -4.1, 0, 3.1, -3.9, 0, 3.1, -4.1, 0, 2.9, -4.1, 0, 2.9, -3.9, 0, 3.1, -3.9, 0, 2.9, 3.9, 1, 3.08, 3.9, 1.2, 3.08, 4.08, 1, 3.08, 4.08, 1, 3.08, 3.9, 1.2, 3.08, 4.08, 1.2, 3.08, 4.08, 1.2, 3.08, 4.08, 1.2, 2.9, 4.08, 1, 3.08, 4.08, 1, 3.08, 4.08, 1.2, 2.9, 4.08, 1, 2.9, 3.9, 1.2, 3.08, 3.9, 1.2, 2.9, 4.08, 1.2, 3.08, 4.08, 1.2, 3.08, 3.9, 1.2, 2.9, 4.08, 1.2, 2.9, 3.9, 1, 2.9, 3.9, 1, 3.08, 4.08, 1, 2.9, 4.08, 1, 2.9, 3.9, 1, 3.08, 4.08, 1, 3.08, 3.9, 0, 3.1, 3.9, 0.2, 3.1, 4.1, 0, 3.1, 4.1, 0, 3.1, 3.9, 0.2, 3.1, 4.1, 0.2, 3.1, 4.1, 0.2, 3.1, 4.1, 0.2, 2.9, 4.1, 0, 3.1, 4.1, 0, 3.1, 4.1, 0.2, 2.9, 4.1, 0, 2.9, 3.9, 0.2, 3.1, 3.9, 0.2, 2.9, 4.1, 0.2, 3.1, 4.1, 0.2, 3.1, 3.9, 0.2, 2.9, 4.1, 0.2, 2.9, 3.9, 0, 2.9, 3.9, 0, 3.1, 4.1, 0, 2.9, 4.1, 0, 2.9, 3.9, 0, 3.1, 4.1, 0, 3.1, -4.08, 1.2, 2.9, -4.08, 1.2, -2.9, -3.9, 1.2, 2.9, -3.9, 1.2, 2.9, -4.08, 1.2, -2.9, -3.9, 1.2, -2.9, 4.025, 3.3349, -0.9762, 4.025, 3.1482, -0.9046, 4.025, 4.0518, 0.8909, 4.025, 4.0518, 0.8909, 4.025, 3.1482, -0.9046, 4.025, 3.8651, 0.9626, 4.025, 3.1482, -0.9046, 3.975, 3.1482, -0.9046, 4.025, 3.8651, 0.9626, 4.025, 3.8651, 0.9626, 3.975, 3.1482, -0.9046, 3.975, 3.8651, 0.9626, 3.975, 3.3349, -0.9762, 4.025, 3.3349, -0.9762, 3.975, 4.0518, 0.8909, 3.975, 4.0518, 0.8909, 4.025, 3.3349, -0.9762, 4.025, 4.0518, 0.8909, 0.1247, 4.0939, -3.025, 0.0443, 3.9108, -3.025, 1.9557, 3.2892, -3.025, 1.9557, 3.2892, -3.025, 0.0443, 3.9108, -3.025, 1.8753, 3.1061, -3.025, 0.0443, 3.9108, -3.025, 0.0443, 3.9108, -2.975, 1.8753, 3.1061, -3.025, 1.8753, 3.1061, -3.025, 0.0443, 3.9108, -2.975, 1.8753, 3.1061, -2.975, 0.1247, 4.0939, -2.975, 0.1247, 4.0939, -3.025, 1.9557, 3.2892, -2.975, 1.9557, 3.2892, -2.975, 0.1247, 4.0939, -3.025, 1.9557, 3.2892, -3.025, -1.9694, 3.3349, -3.025, -1.8977, 3.1482, -3.025, -0.1023, 4.0518, -3.025, -0.1023, 4.0518, -3.025, -1.8977, 3.1482, -3.025, -0.0306, 3.8651, -3.025, -1.8977, 3.1482, -3.025, -1.8977, 3.1482, -2.975, -0.0306, 3.8651, -3.025, -0.0306, 3.8651, -3.025, -1.8977, 3.1482, -2.975, -0.0306, 3.8651, -2.975, -1.9694, 3.3349, -2.975, -1.9694, 3.3349, -3.025, -0.1023, 4.0518, -2.975, -0.1023, 4.0518, -2.975, -1.9694, 3.3349, -3.025, -0.1023, 4.0518, -3.025, 2.0306, 3.3349, -3.025, 2.1023, 3.1482, -3.025, 3.8977, 4.0518, -3.025, 3.8977, 4.0518, -3.025, 2.1023, 3.1482, -3.025, 3.9694, 3.8651, -3.025, 2.1023, 3.1482, -3.025, 2.1023, 3.1482, -2.975, 3.9694, 3.8651, -3.025, 3.9694, 3.8651, -3.025, 2.1023, 3.1482, -2.975, 3.9694, 3.8651, -2.975, 2.0306, 3.3349, -2.975, 2.0306, 3.3349, -3.025, 3.8977, 4.0518, -2.975, 3.8977, 4.0518, -2.975, 2.0306, 3.3349, -3.025, 3.8977, 4.0518, -3.025, 4.025, 4.0939, -2.8821, 4.025, 3.9108, -2.9626, 4.025, 3.2892, -1.0511, 4.025, 3.2892, -1.0511, 4.025, 3.9108, -2.9626, 4.025, 3.1061, -1.1316, 4.025, 3.9108, -2.9626, 3.975, 3.9108, -2.9626, 4.025, 3.1061, -1.1316, 4.025, 3.1061, -1.1316, 3.975, 3.9108, -2.9626, 3.975, 3.1061, -1.1316, 3.975, 4.0939, -2.8821, 4.025, 4.0939, -2.8821, 3.975, 3.2892, -1.0511, 3.975, 3.2892, -1.0511, 4.025, 4.0939, -2.8821, 4.025, 3.2892, -1.0511, -0.0528, 3.2641, 3.05, -0.1381, 3.0832, 3.05, -1.8619, 4.1168, 3.05, -1.8619, 4.1168, 3.05, -0.1381, 3.0832, 3.05, -1.9472, 3.9359, 3.05, -0.1381, 3.0832, 3.05, -0.1381, 3.0832, 3, -1.9472, 3.9359, 3.05, -1.9472, 3.9359, 3.05, -0.1381, 3.0832, 3, -1.9472, 3.9359, 3, -0.0528, 3.2641, 3, -0.0528, 3.2641, 3.05, -1.8619, 4.1168, 3, -1.8619, 4.1168, 3, -0.0528, 3.2641, 3.05, -1.8619, 4.1168, 3.05, 1.8813, 4.0831, 3.05, 1.9595, 3.899, 3.05, 0.0405, 3.301, 3.05, 0.0405, 3.301, 3.05, 1.9595, 3.899, 3.05, 0.1187, 3.1169, 3.05, 1.9595, 3.899, 3.05, 1.9595, 3.899, 3, 0.1187, 3.1169, 3.05, 0.1187, 3.1169, 3.05, 1.9595, 3.899, 3, 0.1187, 3.1169, 3, 1.8813, 4.0831, 3, 1.8813, 4.0831, 3.05, 0.0405, 3.301, 3, 0.0405, 3.301, 3, 1.8813, 4.0831, 3.05, 0.0405, 3.301, 3.05, -2.1068, 4.0607, 3.05, -2.0333, 3.8747, 3.05, -3.9667, 3.3253, 3.05, -3.9667, 3.3253, 3.05, -2.0333, 3.8747, 3.05, -3.8932, 3.1393, 3.05, -2.0333, 3.8747, 3.05, -2.0333, 3.8747, 3, -3.8932, 3.1393, 3.05, -3.8932, 3.1393, 3.05, -2.0333, 3.8747, 3, -3.8932, 3.1393, 3, -2.1068, 4.0607, 3, -2.1068, 4.0607, 3.05, -3.9667, 3.3253, 3, -3.9667, 3.3253, 3, -2.1068, 4.0607, 3.05, -3.9667, 3.3253, 3.05, -4.05, 3.2477, 2.9412, -4.05, 3.0683, 2.8528, -4.05, 4.1317, 1.1472, -4.05, 4.1317, 1.1472, -4.05, 3.0683, 2.8528, -4.05, 3.9523, 1.0588, -4.05, 3.0683, 2.8528, -4, 3.0683, 2.8528, -4.05, 3.9523, 1.0588, -4.05, 3.9523, 1.0588, -4, 3.0683, 2.8528, -4, 3.9523, 1.0588, -4, 3.2477, 2.9412, -4.05, 3.2477, 2.9412, -4, 4.1317, 1.1472, -4, 4.1317, 1.1472, -4.05, 3.2477, 2.9412, -4.05, 4.1317, 1.1472, -4.05, 4.0663, 0.8903, -4.05, 3.8808, 0.965, -4.05, 3.3192, -0.965, -4.05, 3.3192, -0.965, -4.05, 3.8808, 0.965, -4.05, 3.1337, -0.8903, -4.05, 3.8808, 0.965, -4, 3.8808, 0.965, -4.05, 3.1337, -0.8903, -4.05, 3.1337, -0.8903, -4, 3.8808, 0.965, -4, 3.1337, -0.8903, -4, 4.0663, 0.8903, -4.05, 4.0663, 0.8903, -4, 3.3192, -0.965, -4, 3.3192, -0.965, -4.05, 4.0663, 0.8903, -4.05, 3.3192, -0.965, 0.0831, 6.1296, -3.025, -0.0562, 5.9861, -3.025, 2.0562, 4.2139, -3.025, 2.0562, 4.2139, -3.025, -0.0562, 5.9861, -3.025, 1.9169, 4.0704, -3.025, -0.0562, 5.9861, -3.025, -0.0562, 5.9861, -2.975, 1.9169, 4.0704, -3.025, 1.9169, 4.0704, -3.025, -0.0562, 5.9861, -2.975, 1.9169, 4.0704, -2.975, 0.0831, 6.1296, -2.975, 0.0831, 6.1296, -3.025, 2.0562, 4.2139, -2.975, 2.0562, 4.2139, -2.975, 0.0831, 6.1296, -3.025, 2.0562, 4.2139, -3.025, -3.9169, 6.1296, -3.025, -4.0562, 5.9861, -3.025, -1.9438, 4.2139, -3.025, -1.9438, 4.2139, -3.025, -4.0562, 5.9861, -3.025, -2.0831, 4.0704, -3.025, -4.0562, 5.9861, -3.025, -4.0562, 5.9861, -2.975, -2.0831, 4.0704, -3.025, -2.0831, 4.0704, -3.025, -4.0562, 5.9861, -2.975, -2.0831, 4.0704, -2.975, -3.9169, 6.1296, -2.975, -3.9169, 6.1296, -3.025, -1.9438, 4.2139, -2.975, -1.9438, 4.2139, -2.975, -3.9169, 6.1296, -3.025, -1.9438, 4.2139, -3.025, 0.0783, 4.241, 3.05, -0.0574, 4.094, 3.05, -1.9426, 6.106, 3.05, -1.9426, 6.106, 3.05, -0.0574, 4.094, 3.05, -2.0783, 5.959, 3.05, -0.0574, 4.094, 3.05, -0.0574, 4.094, 3, -2.0783, 5.959, 3.05, -2.0783, 5.959, 3.05, -0.0574, 4.094, 3, -2.0783, 5.959, 3, 0.0783, 4.241, 3, 0.0783, 4.241, 3.05, -1.9426, 6.106, 3, -1.9426, 6.106, 3, 0.0783, 4.241, 3.05, -1.9426, 6.106, 3.05, -4.05, 3.2979, -1.0415, -4.05, 3.1141, -1.1203, -4.05, 4.0859, -2.8797, -4.05, 4.0859, -2.8797, -4.05, 3.1141, -1.1203, -4.05, 3.9021, -2.9585, -4.05, 3.1141, -1.1203, -4, 3.1141, -1.1203, -4.05, 3.9021, -2.9585, -4.05, 3.9021, -2.9585, -4, 3.1141, -1.1203, -4, 3.9021, -2.9585, -4, 3.2979, -1.0415, -4.05, 3.2979, -1.0415, -4, 4.0859, -2.8797, -4, 4.0859, -2.8797, -4.05, 3.2979, -1.0415, -4.05, 4.0859, -2.8797, -3.8967, 4.0537, -3.025, -3.9688, 3.8672, -3.025, -2.0312, 3.3328, -3.025, -2.0312, 3.3328, -3.025, -3.9688, 3.8672, -3.025, -2.1033, 3.1463, -3.025, -3.9688, 3.8672, -3.025, -3.9688, 3.8672, -2.975, -2.1033, 3.1463, -3.025, -2.1033, 3.1463, -3.025, -3.9688, 3.8672, -2.975, -2.1033, 3.1463, -2.975, -3.8967, 4.0537, -2.975, -3.8967, 4.0537, -3.025, -2.0312, 3.3328, -2.975, -2.0312, 3.3328, -2.975, -3.8967, 4.0537, -3.025, -2.0312, 3.3328, -3.025, 4.025, 4.0961, 1.126, 4.025, 3.9133, 1.0451, 4.025, 3.2867, 2.9549, 4.025, 3.2867, 2.9549, 4.025, 3.9133, 1.0451, 4.025, 3.1039, 2.874, 4.025, 3.9133, 1.0451, 3.975, 3.9133, 1.0451, 4.025, 3.1039, 2.874, 4.025, 3.1039, 2.874, 3.975, 3.9133, 1.0451, 3.975, 3.1039, 2.874, 3.975, 4.0961, 1.126, 4.025, 4.0961, 1.126, 3.975, 3.2867, 2.9549, 3.975, 3.2867, 2.9549, 4.025, 4.0961, 1.126, 4.025, 3.2867, 2.9549, 3.9647, 3.3184, 3.05, 3.8899, 3.133, 3.05, 2.1101, 4.067, 3.05, 2.1101, 4.067, 3.05, 3.8899, 3.133, 3.05, 2.0353, 3.8816, 3.05, 3.8899, 3.133, 3.05, 3.8899, 3.133, 3, 2.0353, 3.8816, 3.05, 2.0353, 3.8816, 3.05, 3.8899, 3.133, 3, 2.0353, 3.8816, 3, 3.9647, 3.3184, 3, 3.9647, 3.3184, 3.05, 2.1101, 4.067, 3, 2.1101, 4.067, 3, 3.9647, 3.3184, 3.05, 2.1101, 4.067, 3.05, -4.025, 6.1296, -1.0831, -4.025, 5.9861, -0.9438, -4.025, 4.2139, -3.0562, -4.025, 4.2139, -3.0562, -4.025, 5.9861, -0.9438, -4.025, 4.0704, -2.9169, -4.025, 5.9861, -0.9438, -3.975, 5.9861, -0.9438, -4.025, 4.0704, -2.9169, -4.025, 4.0704, -2.9169, -3.975, 5.9861, -0.9438, -3.975, 4.0704, -2.9169, -3.975, 6.1296, -1.0831, -4.025, 6.1296, -1.0831, -3.975, 4.2139, -3.0562, -3.975, 4.2139, -3.0562, -4.025, 6.1296, -1.0831, -4.025, 4.2139, -3.0562, -4.025, 6.1296, 2.9169, -4.025, 5.9861, 3.0562, -4.025, 4.2139, 0.9438, -4.025, 4.2139, 0.9438, -4.025, 5.9861, 3.0562, -4.025, 4.0704, 1.0831, -4.025, 5.9861, 3.0562, -3.975, 5.9861, 3.0562, -4.025, 4.0704, 1.0831, -4.025, 4.0704, 1.0831, -3.975, 5.9861, 3.0562, -3.975, 4.0704, 1.0831, -3.975, 6.1296, 2.9169, -4.025, 6.1296, 2.9169, -3.975, 4.2139, 0.9438, -3.975, 4.2139, 0.9438, -4.025, 6.1296, 2.9169, -4.025, 4.2139, 0.9438, 4.025, 6.1296, 1.0831, 4.025, 5.9861, 0.9438, 4.025, 4.2139, 3.0562, 4.025, 4.2139, 3.0562, 4.025, 5.9861, 0.9438, 4.025, 4.0704, 2.9169, 4.025, 5.9861, 0.9438, 3.975, 5.9861, 0.9438, 4.025, 4.0704, 2.9169, 4.025, 4.0704, 2.9169, 3.975, 5.9861, 0.9438, 3.975, 4.0704, 2.9169, 3.975, 6.1296, 1.0831, 4.025, 6.1296, 1.0831, 3.975, 4.2139, 3.0562, 3.975, 4.2139, 3.0562, 4.025, 6.1296, 1.0831, 4.025, 4.2139, 3.0562, 4.025, 6.1296, -2.9169, 4.025, 5.9861, -3.0562, 4.025, 4.2139, -0.9438, 4.025, 4.2139, -0.9438, 4.025, 5.9861, -3.0562, 4.025, 4.0704, -1.0831, 4.025, 5.9861, -3.0562, 3.975, 5.9861, -3.0562, 4.025, 4.0704, -1.0831, 4.025, 4.0704, -1.0831, 3.975, 5.9861, -3.0562, 3.975, 4.0704, -1.0831, 3.975, 6.1296, -2.9169, 4.025, 6.1296, -2.9169, 3.975, 4.2139, -0.9438, 3.975, 4.2139, -0.9438, 4.025, 6.1296, -2.9169, 4.025, 4.2139, -0.9438, 0, 4.1, 3, -2, 4.1, 3, 0, 6, 3, 0, 6, 3, -2, 4.1, 3, -2, 6, 3, 2, 3.1, 3, 2, 4.1, 3, 4, 3.1, 3, 4, 3.1, 3, 2, 4.1, 3, 4, 4.1, 3, -4, 4.1, 1, -4, 4.1, -1, -4, 6, 1, -4, 6, 1, -4, 4.1, -1, -4, 6, -1, -4, 4.1, 3, -4, 4.1, 1, -4, 6, 3, -4, 6, 3, -4, 4.1, 1, -4, 6, 1, 2, 4.1, 3, 0, 4.1, 3, 2, 6, 3, 2, 6, 3, 0, 4.1, 3, 0, 6, 3, -2, 4.1, 3, -4, 4.1, 3, -2, 6, 3, -2, 6, 3, -4, 4.1, 3, -4, 6, 3, -2, 3.1, 3, -4, 3.1, 3, -2, 4.1, 3, -2, 4.1, 3, -4, 3.1, 3, -4, 4.1, 3, 2, 3.1, 3, 0, 3.1, 3, 2, 4.1, 3, 2, 4.1, 3, 0, 3.1, 3, 0, 4.1, 3, -4, 3.1, 3, -4, 3.1, 1, -4, 4.1, 3, -4, 4.1, 3, -4, 3.1, 1, -4, 4.1, 1, -4, 3.1, 1, -4, 3.1, -1, -4, 4.1, 1, -4, 4.1, 1, -4, 3.1, -1, -4, 4.1, -1, -4, 4.1, -1, -4, 3.1, -1, -4, 4.1, -3, -4, 4.1, -3, -4, 3.1, -1, -4, 3.1, -3, 0, 3.1, 3, -2, 3.1, 3, 0, 4.1, 3, 0, 4.1, 3, -2, 3.1, 3, -2, 4.1, 3, 4, 4.1, 1, 4, 4.1, 3, 4, 6, 1, 4, 6, 1, 4, 4.1, 3, 4, 6, 3, 4, 4.1, -1, 4, 4.1, 1, 4, 6, -1, 4, 6, -1, 4, 4.1, 1, 4, 6, 1, 4, 3.1, -1, 4, 3.1, 1, 4, 4.1, -1, 4, 4.1, -1, 4, 3.1, 1, 4, 4.1, 1, 4, 3.1, 1, 4, 3.1, 3, 4, 4.1, 1, 4, 4.1, 1, 4, 3.1, 3, 4, 4.1, 3, 4, 4.1, -1, 4, 6, -1, 4, 4.1, -3, 4, 4.1, -3, 4, 6, -1, 4, 6, -3, 2, 4.1, 3, 2, 6, 3, 4, 4.1, 3, 4, 4.1, 3, 2, 6, 3, 4, 6, 3, 0, 4.1, -3, 2, 4.1, -3, 0, 6, -3, 0, 6, -3, 2, 4.1, -3, 2, 6, -3, -2, 4.1, -3, 0, 4.1, -3, -2, 6, -3, -2, 6, -3, 0, 4.1, -3, 0, 6, -3, -4, 4.1, -3, -2, 4.1, -3, -4, 6, -3, -4, 6, -3, -2, 4.1, -3, -2, 6, -3, -4, 3.1, -3, -2, 3.1, -3, -4, 4.1, -3, -4, 4.1, -3, -2, 3.1, -3, -2, 4.1, -3, 2, 6, -3, 2, 4.1, -3, 4, 6, -3, 4, 6, -3, 2, 4.1, -3, 4, 4.1, -3, -2, 3.1, -3, 0, 3.1, -3, -2, 4.1, -3, -2, 4.1, -3, 0, 3.1, -3, 0, 4.1, -3, 0, 3.1, -3, 2, 3.1, -3, 0, 4.1, -3, 0, 4.1, -3, 2, 3.1, -3, 2, 4.1, -3, 2, 4.1, -3, 2, 3.1, -3, 4, 4.1, -3, 4, 4.1, -3, 2, 3.1, -3, 4, 3.1, -3, 4, 3.1, -1, 4, 4.1, -1, 4, 3.1, -3, 4, 3.1, -3, 4, 4.1, -1, 4, 4.1, -3, -4, 6, -1, -4, 4.1, -1, -4, 6, -3, -4, 6, -3, -4, 4.1, -1, -4, 4.1, -3, -2.1, 6, -2.9, -2.1, 3.2, -2.9, -2.1, 6, -3.1, -2.1, 6, -3.1, -2.1, 3.2, -2.9, -2.1, 3.2, -3.1, -2.1, 6, -3.1, -2.1, 3.2, -3.1, -1.9, 6, -3.1, -1.9, 6, -3.1, -2.1, 3.2, -3.1, -1.9, 3.2, -3.1, -1.9, 6, -3.1, -1.9, 3.2, -3.1, -1.9, 6, -2.9, -1.9, 6, -2.9, -1.9, 3.2, -3.1, -1.9, 3.2, -2.9, -3.9, 6, -0.9, -3.9, 3.2, -0.9, -4.1, 6, -0.9, -4.1, 6, -0.9, -3.9, 3.2, -0.9, -4.1, 3.2, -0.9, -4.1, 6, -0.9, -4.1, 3.2, -0.9, -4.1, 6, -1.1, -4.1, 6, -1.1, -4.1, 3.2, -0.9, -4.1, 3.2, -1.1, -4.1, 6, -1.1, -4.1, 3.2, -1.1, -3.9, 6, -1.1, -3.9, 6, -1.1, -4.1, 3.2, -1.1, -3.9, 3.2, -1.1, -3.9, 6, -1.1, -3.9, 3.2, -1.1, -3.9, 6, -0.9, -3.9, 6, -0.9, -3.9, 3.2, -1.1, -3.9, 3.2, -0.9, -4.1, 6, 0.9, -4.1, 3.2, 0.9, -3.9, 6, 0.9, -3.9, 6, 0.9, -4.1, 3.2, 0.9, -3.9, 3.2, 0.9, 0.1, 3.2, -3.1, 0.1, 3.2, -2.9, 0.1, 6, -3.1, 0.1, 6, -3.1, 0.1, 3.2, -2.9, 0.1, 6, -2.9, -0.1, 3.2, -3.1, 0.1, 3.2, -3.1, -0.1, 6, -3.1, -0.1, 6, -3.1, 0.1, 3.2, -3.1, 0.1, 6, -3.1, -0.1, 3.2, -2.9, -0.1, 3.2, -3.1, -0.1, 6, -2.9, -0.1, 6, -2.9, -0.1, 3.2, -3.1, -0.1, 6, -3.1, 4.1, 3.2, -2.9, 3.9, 3.2, -2.9, 4.1, 6, -2.9, 4.1, 6, -2.9, 3.9, 3.2, -2.9, 3.9, 6, -2.9, 4.1, 3.2, -3.1, 4.1, 3.2, -2.9, 4.1, 6, -3.1, 4.1, 6, -3.1, 4.1, 3.2, -2.9, 4.1, 6, -2.9, 3.9, 3.2, -3.1, 4.1, 3.2, -3.1, 3.9, 6, -3.1, 3.9, 6, -3.1, 4.1, 3.2, -3.1, 4.1, 6, -3.1, 3.9, 3.2, -2.9, 3.9, 3.2, -3.1, 3.9, 6, -2.9, 3.9, 6, -2.9, 3.9, 3.2, -3.1, 3.9, 6, -3.1, 3.9, 3.2, 0.9, 4.1, 3.2, 0.9, 3.9, 6, 0.9, 3.9, 6, 0.9, 4.1, 3.2, 0.9, 4.1, 6, 0.9, -2.1, 3.2, 3.1, -2.1, 3.2, 2.9, -2.1, 6, 3.1, -2.1, 6, 3.1, -2.1, 3.2, 2.9, -2.1, 6, 2.9, -1.9, 3.2, 3.1, -2.1, 3.2, 3.1, -1.9, 6, 3.1, -1.9, 6, 3.1, -2.1, 3.2, 3.1, -2.1, 6, 3.1, -1.9, 3.2, 2.9, -1.9, 3.2, 3.1, -1.9, 6, 2.9, -1.9, 6, 2.9, -1.9, 3.2, 3.1, -1.9, 6, 3.1, -4.1, 3.2, 2.9, -3.9, 3.2, 2.9, -4.1, 6, 2.9, -4.1, 6, 2.9, -3.9, 3.2, 2.9, -3.9, 6, 2.9, -4.1, 3.2, 3.1, -4.1, 3.2, 2.9, -4.1, 6, 3.1, -4.1, 6, 3.1, -4.1, 3.2, 2.9, -4.1, 6, 2.9, -3.9, 3.2, 3.1, -4.1, 3.2, 3.1, -3.9, 6, 3.1, -3.9, 6, 3.1, -4.1, 3.2, 3.1, -4.1, 6, 3.1, -3.9, 3.2, 2.9, -3.9, 3.2, 3.1, -3.9, 6, 2.9, -3.9, 6, 2.9, -3.9, 3.2, 3.1, -3.9, 6, 3.1, -3.9, 3.2, 1.1, -4.1, 3.2, 1.1, -3.9, 6, 1.1, -3.9, 6, 1.1, -4.1, 3.2, 1.1, -4.1, 6, 1.1, 0.1, 6, 2.9, 0.1, 3.2, 2.9, 0.1, 6, 3.1, 0.1, 6, 3.1, 0.1, 3.2, 2.9, 0.1, 3.2, 3.1, 0.1, 6, 3.1, 0.1, 3.2, 3.1, -0.1, 6, 3.1, -0.1, 6, 3.1, 0.1, 3.2, 3.1, -0.1, 3.2, 3.1, -0.1, 6, 3.1, -0.1, 3.2, 3.1, -0.1, 6, 2.9, -0.1, 6, 2.9, -0.1, 3.2, 3.1, -0.1, 3.2, 2.9, 3.9, 6, 2.9, 3.9, 3.2, 2.9, 4.1, 6, 2.9, 4.1, 6, 2.9, 3.9, 3.2, 2.9, 4.1, 3.2, 2.9, 4.1, 6, 2.9, 4.1, 3.2, 2.9, 4.1, 6, 3.1, 4.1, 6, 3.1, 4.1, 3.2, 2.9, 4.1, 3.2, 3.1, 4.1, 6, 3.1, 4.1, 3.2, 3.1, 3.9, 6, 3.1, 3.9, 6, 3.1, 4.1, 3.2, 3.1, 3.9, 3.2, 3.1, 3.9, 6, 3.1, 3.9, 3.2, 3.1, 3.9, 6, 2.9, 3.9, 6, 2.9, 3.9, 3.2, 3.1, 3.9, 3.2, 2.9, 4.1, 6, 1.1, 4.1, 3.2, 1.1, 3.9, 6, 1.1, 3.9, 6, 1.1, 4.1, 3.2, 1.1, 3.9, 3.2, 1.1, -3.9, 6, -2.9, -3.9, 3.2, -2.9, -4.1, 6, -2.9, -4.1, 6, -2.9, -3.9, 3.2, -2.9, -4.1, 3.2, -2.9, -4.1, 6, -2.9, -4.1, 3.2, -2.9, -4.1, 6, -3.1, -4.1, 6, -3.1, -4.1, 3.2, -2.9, -4.1, 3.2, -3.1, -4.1, 6, -3.1, -4.1, 3.2, -3.1, -3.9, 6, -3.1, -3.9, 6, -3.1, -4.1, 3.2, -3.1, -3.9, 3.2, -3.1, -3.9, 6, -3.1, -3.9, 3.2, -3.1, -3.9, 6, -2.9, -3.9, 6, -2.9, -3.9, 3.2, -3.1, -3.9, 3.2, -2.9, 4.1, 6, 1.1, 4.1, 6, 0.9, 4.1, 3.2, 1.1, 4.1, 3.2, 1.1, 4.1, 6, 0.9, 4.1, 3.2, 0.9, 3.9, 3.2, -1.1, 4.1, 3.2, -1.1, 3.9, 6, -1.1, 3.9, 6, -1.1, 4.1, 3.2, -1.1, 4.1, 6, -1.1, 4.1, 6, -0.9, 4.1, 3.2, -0.9, 3.9, 6, -0.9, 3.9, 6, -0.9, 4.1, 3.2, -0.9, 3.9, 3.2, -0.9, 4.1, 6, -0.9, 4.1, 6, -1.1, 4.1, 3.2, -0.9, 4.1, 3.2, -0.9, 4.1, 6, -1.1, 4.1, 3.2, -1.1, 2.1, 6, 2.9, 2.1, 3.2, 2.9, 2.1, 6, 3.1, 2.1, 6, 3.1, 2.1, 3.2, 2.9, 2.1, 3.2, 3.1, 2.1, 6, 3.1, 2.1, 3.2, 3.1, 1.9, 6, 3.1, 1.9, 6, 3.1, 2.1, 3.2, 3.1, 1.9, 3.2, 3.1, 1.9, 6, 3.1, 1.9, 3.2, 3.1, 1.9, 6, 2.9, 1.9, 6, 2.9, 1.9, 3.2, 3.1, 1.9, 3.2, 2.9, -4.1, 3.2, 1.1, -4.1, 3.2, 0.9, -4.1, 6, 1.1, -4.1, 6, 1.1, -4.1, 3.2, 0.9, -4.1, 6, 0.9, 2.1, 3.2, -3.1, 2.1, 3.2, -2.9, 2.1, 6, -3.1, 2.1, 6, -3.1, 2.1, 3.2, -2.9, 2.1, 6, -2.9, 1.9, 3.2, -3.1, 2.1, 3.2, -3.1, 1.9, 6, -3.1, 1.9, 6, -3.1, 2.1, 3.2, -3.1, 2.1, 6, -3.1, 1.9, 3.2, -2.9, 1.9, 3.2, -3.1, 1.9, 6, -2.9, 1.9, 6, -2.9, 1.9, 3.2, -3.1, 1.9, 6, -3.1, -3.9, 4, -3.08, -3.9, 4.2, -3.08, -4.08, 4, -3.08, -4.08, 4, -3.08, -3.9, 4.2, -3.08, -4.08, 4.2, -3.08, -4.1, 3.2, 2.9, -4.1, 3.2, -2.9, -3.9, 3.2, 2.9, -3.9, 3.2, 2.9, -4.1, 3.2, -2.9, -3.9, 3.2, -2.9, 3.9, 4, -3.08, -3.9, 4, -3.08, 3.9, 4, -2.9, 3.9, 4, -2.9, -3.9, 4, -3.08, -3.9, 4, -2.9, 3.9, 4.2, 3.08, -3.9, 4.2, 3.08, 3.9, 4.2, 2.9, 3.9, 4.2, 2.9, -3.9, 4.2, 3.08, -3.9, 4.2, 2.9, 3.9, 4.2, -3.08, -3.9, 4.2, -3.08, 3.9, 4, -3.08, 3.9, 4, -3.08, -3.9, 4.2, -3.08, -3.9, 4, -3.08, -4.08, 4.2, -3.08, -4.08, 4.2, -2.9, -4.08, 4, -3.08, -4.08, 4, -3.08, -4.08, 4.2, -2.9, -4.08, 4, -2.9, -3.9, 4.2, -3.08, -3.9, 4.2, -2.9, -4.08, 4.2, -3.08, -4.08, 4.2, -3.08, -3.9, 4.2, -2.9, -4.08, 4.2, -2.9, -4.08, 4, 2.9, -4.08, 4, -2.9, -4.08, 4.2, 2.9, -4.08, 4.2, 2.9, -4.08, 4, -2.9, -4.08, 4.2, -2.9, -3.9, 4, -2.9, -3.9, 4, -3.08, -4.08, 4, -2.9, -4.08, 4, -2.9, -3.9, 4, -3.08, -4.08, 4, -3.08, -3.9, 4, 2.9, -3.9, 4, -2.9, -4.08, 4, 2.9, -4.08, 4, 2.9, -3.9, 4, -2.9, -4.08, 4, -2.9, -3.9, 3, -3.1, -3.9, 3.2, -3.1, -4.1, 3, -3.1, -4.1, 3, -3.1, -3.9, 3.2, -3.1, -4.1, 3.2, -3.1, 3.9, 3.2, 2.9, 3.9, 3.2, -2.9, 4.1, 3.2, 2.9, 4.1, 3.2, 2.9, 3.9, 3.2, -2.9, 4.1, 3.2, -2.9, 3.9, 4.2, -2.9, -3.9, 4.2, -2.9, 3.9, 4.2, -3.08, 3.9, 4.2, -3.08, -3.9, 4.2, -2.9, -3.9, 4.2, -3.08, 3.9, 3.2, -3.1, -3.9, 3.2, -3.1, 3.9, 3, -3.1, 3.9, 3, -3.1, -3.9, 3.2, -3.1, -3.9, 3, -3.1, 3.9, 3, -3.1, -3.9, 3, -3.1, 3.9, 3, -2.9, 3.9, 3, -2.9, -3.9, 3, -3.1, -3.9, 3, -2.9, -4.1, 3.2, -3.1, -4.1, 3.2, -2.9, -4.1, 3, -3.1, -4.1, 3, -3.1, -4.1, 3.2, -2.9, -4.1, 3, -2.9, -3.9, 3.2, -3.1, -3.9, 3.2, -2.9, -4.1, 3.2, -3.1, -4.1, 3.2, -3.1, -3.9, 3.2, -2.9, -4.1, 3.2, -2.9, -4.1, 3, 2.9, -4.1, 3, -2.9, -4.1, 3.2, 2.9, -4.1, 3.2, 2.9, -4.1, 3, -2.9, -4.1, 3.2, -2.9, -3.9, 3, -2.9, -3.9, 3, -3.1, -4.1, 3, -2.9, -4.1, 3, -2.9, -3.9, 3, -3.1, -4.1, 3, -3.1, -3.9, 3, 2.9, -3.9, 3, -2.9, -4.1, 3, 2.9, -4.1, 3, 2.9, -3.9, 3, -2.9, -4.1, 3, -2.9, 4.08, 4.2, -3.08, 3.9, 4.2, -3.08, 4.08, 4, -3.08, 4.08, 4, -3.08, 3.9, 4.2, -3.08, 3.9, 4, -3.08, 3.9, 3.2, -2.9, -3.9, 3.2, -2.9, 3.9, 3.2, -3.1, 3.9, 3.2, -3.1, -3.9, 3.2, -2.9, -3.9, 3.2, -3.1, 4.08, 4, -2.9, 4.08, 4.2, -2.9, 4.08, 4, -3.08, 4.08, 4, -3.08, 4.08, 4.2, -2.9, 4.08, 4.2, -3.08, 4.08, 4.2, -2.9, 3.9, 4.2, -2.9, 4.08, 4.2, -3.08, 4.08, 4.2, -3.08, 3.9, 4.2, -2.9, 3.9, 4.2, -3.08, 4.08, 4.2, 2.9, 4.08, 4.2, -2.9, 4.08, 4, 2.9, 4.08, 4, 2.9, 4.08, 4.2, -2.9, 4.08, 4, -2.9, 4.08, 4, -3.08, 3.9, 4, -3.08, 4.08, 4, -2.9, 4.08, 4, -2.9, 3.9, 4, -3.08, 3.9, 4, -2.9, 4.08, 4, 2.9, 4.08, 4, -2.9, 3.9, 4, 2.9, 3.9, 4, 2.9, 4.08, 4, -2.9, 3.9, 4, -2.9, 4.1, 3.2, -3.1, 3.9, 3.2, -3.1, 4.1, 3, -3.1, 4.1, 3, -3.1, 3.9, 3.2, -3.1, 3.9, 3, -3.1, 3.9, 4.2, 2.9, 3.9, 4.2, -2.9, 4.08, 4.2, 2.9, 4.08, 4.2, 2.9, 3.9, 4.2, -2.9, 4.08, 4.2, -2.9, 4.1, 3, -2.9, 4.1, 3.2, -2.9, 4.1, 3, -3.1, 4.1, 3, -3.1, 4.1, 3.2, -2.9, 4.1, 3.2, -3.1, 4.1, 3.2, -2.9, 3.9, 3.2, -2.9, 4.1, 3.2, -3.1, 4.1, 3.2, -3.1, 3.9, 3.2, -2.9, 3.9, 3.2, -3.1, 4.1, 3.2, 2.9, 4.1, 3.2, -2.9, 4.1, 3, 2.9, 4.1, 3, 2.9, 4.1, 3.2, -2.9, 4.1, 3, -2.9, 4.1, 3, -3.1, 3.9, 3, -3.1, 4.1, 3, -2.9, 4.1, 3, -2.9, 3.9, 3, -3.1, 3.9, 3, -2.9, 4.1, 3, 2.9, 4.1, 3, -2.9, 3.9, 3, 2.9, 3.9, 3, 2.9, 4.1, 3, -2.9, 3.9, 3, -2.9, -4.08, 4.2, 3.08, -3.9, 4.2, 3.08, -4.08, 4, 3.08, -4.08, 4, 3.08, -3.9, 4.2, 3.08, -3.9, 4, 3.08, 3.9, 4, 2.9, -3.9, 4, 2.9, 3.9, 4, 3.08, 3.9, 4, 3.08, -3.9, 4, 2.9, -3.9, 4, 3.08, 3.9, 3.2, 3.1, -3.9, 3.2, 3.1, 3.9, 3.2, 2.9, 3.9, 3.2, 2.9, -3.9, 3.2, 3.1, -3.9, 3.2, 2.9, 3.9, 4, 3.08, -3.9, 4, 3.08, 3.9, 4.2, 3.08, 3.9, 4.2, 3.08, -3.9, 4, 3.08, -3.9, 4.2, 3.08, -4.08, 4, 2.9, -4.08, 4.2, 2.9, -4.08, 4, 3.08, -4.08, 4, 3.08, -4.08, 4.2, 2.9, -4.08, 4.2, 3.08, -4.08, 4.2, 2.9, -3.9, 4.2, 2.9, -4.08, 4.2, 3.08, -4.08, 4.2, 3.08, -3.9, 4.2, 2.9, -3.9, 4.2, 3.08, -4.08, 4, 3.08, -3.9, 4, 3.08, -4.08, 4, 2.9, -4.08, 4, 2.9, -3.9, 4, 3.08, -3.9, 4, 2.9, -4.1, 3.2, 3.1, -3.9, 3.2, 3.1, -4.1, 3, 3.1, -4.1, 3, 3.1, -3.9, 3.2, 3.1, -3.9, 3, 3.1, 3.9, 3, 3.1, -3.9, 3, 3.1, 3.9, 3.2, 3.1, 3.9, 3.2, 3.1, -3.9, 3, 3.1, -3.9, 3.2, 3.1, 3.9, 3, 2.9, -3.9, 3, 2.9, 3.9, 3, 3.1, 3.9, 3, 3.1, -3.9, 3, 2.9, -3.9, 3, 3.1, -4.1, 3, 2.9, -4.1, 3.2, 2.9, -4.1, 3, 3.1, -4.1, 3, 3.1, -4.1, 3.2, 2.9, -4.1, 3.2, 3.1, -4.1, 3.2, 2.9, -3.9, 3.2, 2.9, -4.1, 3.2, 3.1, -4.1, 3.2, 3.1, -3.9, 3.2, 2.9, -3.9, 3.2, 3.1, -4.1, 3, 3.1, -3.9, 3, 3.1, -4.1, 3, 2.9, -4.1, 3, 2.9, -3.9, 3, 3.1, -3.9, 3, 2.9, 3.9, 4, 3.08, 3.9, 4.2, 3.08, 4.08, 4, 3.08, 4.08, 4, 3.08, 3.9, 4.2, 3.08, 4.08, 4.2, 3.08, 4.08, 4.2, 3.08, 4.08, 4.2, 2.9, 4.08, 4, 3.08, 4.08, 4, 3.08, 4.08, 4.2, 2.9, 4.08, 4, 2.9, 3.9, 4.2, 3.08, 3.9, 4.2, 2.9, 4.08, 4.2, 3.08, 4.08, 4.2, 3.08, 3.9, 4.2, 2.9, 4.08, 4.2, 2.9, 3.9, 4, 2.9, 3.9, 4, 3.08, 4.08, 4, 2.9, 4.08, 4, 2.9, 3.9, 4, 3.08, 4.08, 4, 3.08, 3.9, 3, 3.1, 3.9, 3.2, 3.1, 4.1, 3, 3.1, 4.1, 3, 3.1, 3.9, 3.2, 3.1, 4.1, 3.2, 3.1, 4.1, 3.2, 3.1, 4.1, 3.2, 2.9, 4.1, 3, 3.1, 4.1, 3, 3.1, 4.1, 3.2, 2.9, 4.1, 3, 2.9, 3.9, 3.2, 3.1, 3.9, 3.2, 2.9, 4.1, 3.2, 3.1, 4.1, 3.2, 3.1, 3.9, 3.2, 2.9, 4.1, 3.2, 2.9, 3.9, 3, 2.9, 3.9, 3, 3.1, 4.1, 3, 2.9, 4.1, 3, 2.9, 3.9, 3, 3.1, 4.1, 3, 3.1, -4.08, 4.2, 2.9, -4.08, 4.2, -2.9, -3.9, 4.2, 2.9, -3.9, 4.2, 2.9, -4.08, 4.2, -2.9, -3.9, 4.2, -2.9, -4, 6, 1, -4, 6, -1, -4, 6, 3, -4, 6, 3, -4, 6, -1, -2, 6, 3, -2, 6, 3, -4, 6, -1, 0, 6, 3, 0, 6, 3, -4, 6, -1, 2, 6, 3, 2, 6, 3, -4, 6, -1, 4, 6, 3, 4, 6, 3, -4, 6, -1, 4, 6, 1, 4, 6, 1, -4, 6, -1, 4, 6, -1, 4, 6, -1, -4, 6, -1, 4, 6, -3, 4, 6, -3, -4, 6, -1, 2, 6, -3, 2, 6, -3, -4, 6, -1, 0, 6, -3, 0, 6, -3, -4, 6, -1, -2, 6, -3, -2, 6, -3, -4, 6, -1, -4, 6, -3, -4.1, 6.2, 2.9, -4.1, 6.2, -2.9, -3.9, 6.2, 2.9, -3.9, 6.2, 2.9, -4.1, 6.2, -2.9, -3.9, 6.2, -2.9, -3.9, 6, -3.1, -3.9, 6.2, -3.1, -4.1, 6, -3.1, -4.1, 6, -3.1, -3.9, 6.2, -3.1, -4.1, 6.2, -3.1, 3.9, 6.2, 2.9, 3.9, 6.2, -2.9, 4.1, 6.2, 2.9, 4.1, 6.2, 2.9, 3.9, 6.2, -2.9, 4.1, 6.2, -2.9, 3.9, 6.2, -3.1, -3.9, 6.2, -3.1, 3.9, 6, -3.1, 3.9, 6, -3.1, -3.9, 6.2, -3.1, -3.9, 6, -3.1, 3.9, 6, -3.1, -3.9, 6, -3.1, 3.9, 6, -2.9, 3.9, 6, -2.9, -3.9, 6, -3.1, -3.9, 6, -2.9, -4.1, 6.2, -3.1, -4.1, 6.2, -2.9, -4.1, 6, -3.1, -4.1, 6, -3.1, -4.1, 6.2, -2.9, -4.1, 6, -2.9, -3.9, 6.2, -3.1, -3.9, 6.2, -2.9, -4.1, 6.2, -3.1, -4.1, 6.2, -3.1, -3.9, 6.2, -2.9, -4.1, 6.2, -2.9, -4.1, 6, 2.9, -4.1, 6, -2.9, -4.1, 6.2, 2.9, -4.1, 6.2, 2.9, -4.1, 6, -2.9, -4.1, 6.2, -2.9, -3.9, 6, -2.9, -3.9, 6, -3.1, -4.1, 6, -2.9, -4.1, 6, -2.9, -3.9, 6, -3.1, -4.1, 6, -3.1, -3.9, 6, 2.9, -3.9, 6, -2.9, -4.1, 6, 2.9, -4.1, 6, 2.9, -3.9, 6, -2.9, -4.1, 6, -2.9, 3.9, 6.2, -2.9, -3.9, 6.2, -2.9, 3.9, 6.2, -3.1, 3.9, 6.2, -3.1, -3.9, 6.2, -2.9, -3.9, 6.2, -3.1, 4.1, 6.2, -3.1, 3.9, 6.2, -3.1, 4.1, 6, -3.1, 4.1, 6, -3.1, 3.9, 6.2, -3.1, 3.9, 6, -3.1, 4.1, 6, -2.9, 4.1, 6.2, -2.9, 4.1, 6, -3.1, 4.1, 6, -3.1, 4.1, 6.2, -2.9, 4.1, 6.2, -3.1, 4.1, 6.2, -2.9, 3.9, 6.2, -2.9, 4.1, 6.2, -3.1, 4.1, 6.2, -3.1, 3.9, 6.2, -2.9, 3.9, 6.2, -3.1, 4.1, 6.2, 2.9, 4.1, 6.2, -2.9, 4.1, 6, 2.9, 4.1, 6, 2.9, 4.1, 6.2, -2.9, 4.1, 6, -2.9, 4.1, 6, -3.1, 3.9, 6, -3.1, 4.1, 6, -2.9, 4.1, 6, -2.9, 3.9, 6, -3.1, 3.9, 6, -2.9, 4.1, 6, 2.9, 4.1, 6, -2.9, 3.9, 6, 2.9, 3.9, 6, 2.9, 4.1, 6, -2.9, 3.9, 6, -2.9, 3.9, 6.2, 3.1, -3.9, 6.2, 3.1, 3.9, 6.2, 2.9, 3.9, 6.2, 2.9, -3.9, 6.2, 3.1, -3.9, 6.2, 2.9, -4.1, 6.2, 3.1, -3.9, 6.2, 3.1, -4.1, 6, 3.1, -4.1, 6, 3.1, -3.9, 6.2, 3.1, -3.9, 6, 3.1, 3.9, 6, 3.1, -3.9, 6, 3.1, 3.9, 6.2, 3.1, 3.9, 6.2, 3.1, -3.9, 6, 3.1, -3.9, 6.2, 3.1, 3.9, 6, 2.9, -3.9, 6, 2.9, 3.9, 6, 3.1, 3.9, 6, 3.1, -3.9, 6, 2.9, -3.9, 6, 3.1, -4.1, 6, 2.9, -4.1, 6.2, 2.9, -4.1, 6, 3.1, -4.1, 6, 3.1, -4.1, 6.2, 2.9, -4.1, 6.2, 3.1, -4.1, 6.2, 2.9, -3.9, 6.2, 2.9, -4.1, 6.2, 3.1, -4.1, 6.2, 3.1, -3.9, 6.2, 2.9, -3.9, 6.2, 3.1, -4.1, 6, 3.1, -3.9, 6, 3.1, -4.1, 6, 2.9, -4.1, 6, 2.9, -3.9, 6, 3.1, -3.9, 6, 2.9, 3.9, 6, 3.1, 3.9, 6.2, 3.1, 4.1, 6, 3.1, 4.1, 6, 3.1, 3.9, 6.2, 3.1, 4.1, 6.2, 3.1, 4.1, 6.2, 3.1, 4.1, 6.2, 2.9, 4.1, 6, 3.1, 4.1, 6, 3.1, 4.1, 6.2, 2.9, 4.1, 6, 2.9, 3.9, 6.2, 3.1, 3.9, 6.2, 2.9, 4.1, 6.2, 3.1, 4.1, 6.2, 3.1, 3.9, 6.2, 2.9, 4.1, 6.2, 2.9, 3.9, 6, 2.9, 3.9, 6, 3.1, 4.1, 6, 2.9, 4.1, 6, 2.9, 3.9, 6, 3.1, 4.1, 6, 3.1 )

[node name="HouseC" type="StaticBody3D"]
collision_layer = 129

[node name="MeshInstance3D" type="MeshInstance3D" parent="."]
mesh = ExtResource( 1 )

[node name="CollisionShape3D" type="CollisionShape3D" parent="."]
shape = SubResource( 1 )
