[gd_scene load_steps=2 format=2]

[ext_resource path="res://expert/ghost/Ghost.gd" type="Script" id=1]

[node name="Ghost" type="Spatial" groups=[
"interactable",
"root_parent",
]]
script = ExtResource( 1 )
