[gd_scene load_steps=2 format=2]

[ext_resource path="res://ui/multiplechoice/MultipleChoiceButton.gd" type="Script" id=1]

[node name="MultipleChoiceButton" type="Button"]
offset_right = 1010.0
offset_bottom = 50.0
custom_minimum_size = Vector2( 0, 50 )
text = "[1] Choose me"
align = 0
script = ExtResource( 1 )

[connection signal="pressed" from="." to="." method="_on_MultipleChoiceButton_pressed"]
