[gd_scene load_steps=5 format=2]

[ext_resource path="res://shader/BlackHoleWarpEffect.tres" type="Shader" id=1]
[ext_resource path="res://world/field/BlackHole.gd" type="Script" id=2]

[sub_resource type="QuadMesh" id=3]

[sub_resource type="ShaderMaterial" id=4]
render_priority = 100
shader = ExtResource( 1 )
shader_param/albedo = Color( 1, 1, 1, 0 )
shader_param/ring_glow = null
shader_param/specular = 0.5
shader_param/metallic = 0.0
shader_param/roughness = 1.0
shader_param/point_size = 1.0
shader_param/refraction = 0.07
shader_param/refraction_texture_channel = Plane( 1, 0, 0, 0 )
shader_param/uv1_scale = Vector3( 1, 1, 1 )
shader_param/uv1_offset = Vector3( 0, 0, 0 )
shader_param/uv2_scale = Vector3( 1, 1, 1 )
shader_param/uv2_offset = Vector3( 0, 0, 0 )

[node name="BlackHole" type="Spatial"]
script = ExtResource( 2 )

[node name="MeshInstance" type="MeshInstance" parent="."]
transform = Transform( 2.08, 0, 0, 0, 2.08, 0, 0, 0, 2.08, 0, 0, 0 )
mesh = SubResource( 3 )
material/0 = SubResource( 4 )
