[gd_scene load_steps=3 format=2]

[ext_resource path="res://world/field/StartingLocation.gd" type="Script" id=1]

[sub_resource type="SphereShape" id=5]
radius = 2.0

[node name="StartingLocation" type="Area"]
script = ExtResource( 1 )

[node name="CollisionShape" type="CollisionShape" parent="."]
shape = SubResource( 5 )

[node name="Location" type="Spatial" parent="."]
