[gd_scene load_steps=3 format=2]

[ext_resource path="res://font/EastSeaDokdo/EastSeaDokdo-Regular.ttf" type="DynamicFontData" id=2]

[sub_resource type="DynamicFont" id=1]
size = 32
outline_size = 1
outline_color = Color( 0.227451, 0.164706, 0.00784314, 1 )
use_mipmaps = true
use_filter = true
extra_spacing_char = -1
extra_spacing_space = 2
font_data = ExtResource( 2 )

[node name="JournalPageTest" type="Control"]
anchor_right = 1.0
anchor_bottom = 1.0
__meta__ = {
"_edit_use_anchors_": false
}

[node name="Label" type="Label" parent="."]
anchor_left = 1.0
anchor_top = 1.0
anchor_right = 1.0
anchor_bottom = 1.0
margin_left = -545.0
margin_top = -14.0
text = "Foo"
align = 2
__meta__ = {
"_edit_use_anchors_": false
}

[node name="Label2" type="Label" parent="."]
anchor_left = 0.5
anchor_right = 0.5
margin_left = -74.0
margin_top = 200.0
margin_right = 74.0
margin_bottom = 233.0
custom_fonts/font = SubResource( 1 )
custom_colors/font_color = Color( 0, 0, 0, 1 )
text = "My First Journal"
align = 1
__meta__ = {
"_edit_use_anchors_": false
}

[node name="ColorRect" type="ColorRect" parent="."]
margin_right = 43.0
margin_bottom = 41.0
color = Color( 0.105882, 0.823529, 0.0627451, 1 )
__meta__ = {
"_edit_use_anchors_": false
}

[node name="ColorRect2" type="ColorRect" parent="."]
anchor_left = 1.0
anchor_top = 1.0
anchor_right = 1.0
anchor_bottom = 1.0
margin_left = -43.0
margin_top = -41.0
color = Color( 1, 0, 0, 1 )
__meta__ = {
"_edit_use_anchors_": false
}
