[gd_scene load_steps=3 format=2]

[ext_resource path="res://ui/closedcaptions/ClosedCaptions.gd" type="Script" id=1]

[sub_resource type="StyleBoxFlat" id=1]
bg_color = Color( 0, 0, 0, 0.501961 )
corner_radius_top_left = 5
corner_radius_top_right = 5
corner_radius_bottom_right = 5
corner_radius_bottom_left = 5

[node name="ClosedCaptions" type="Control"]
anchor_right = 1.0
anchor_bottom = 1.0
mouse_filter = 1
script = ExtResource( 1 )
__meta__ = {
"_edit_use_anchors_": false
}

[node name="MarginContainer" type="MarginContainer" parent="."]
anchor_top = 1.0
anchor_right = 1.0
anchor_bottom = 1.0
margin_top = -74.0
grow_vertical = 0
mouse_filter = 1
custom_constants/margin_right = 100
custom_constants/margin_top = 25
custom_constants/margin_left = 100
custom_constants/margin_bottom = 25
__meta__ = {
"_edit_use_anchors_": false
}

[node name="Panel" type="Panel" parent="MarginContainer"]
margin_left = 100.0
margin_top = 25.0
margin_right = 924.0
margin_bottom = 49.0
mouse_filter = 1
custom_styles/panel = SubResource( 1 )
__meta__ = {
"_edit_use_anchors_": false
}

[node name="MarginContainer" type="MarginContainer" parent="MarginContainer"]
margin_left = 100.0
margin_top = 25.0
margin_right = 924.0
margin_bottom = 49.0
mouse_filter = 1
custom_constants/margin_right = 5
custom_constants/margin_top = 5
custom_constants/margin_left = 5
custom_constants/margin_bottom = 5
__meta__ = {
"_edit_use_anchors_": false
}

[node name="VBoxContainer" type="VBoxContainer" parent="MarginContainer/MarginContainer"]
margin_left = 5.0
margin_top = 5.0
margin_right = 819.0
margin_bottom = 19.0
__meta__ = {
"_edit_use_anchors_": false
}

[node name="Label" type="Label" parent="MarginContainer/MarginContainer/VBoxContainer"]
margin_right = 814.0
margin_bottom = 14.0
text = "Row 1"
__meta__ = {
"_edit_use_anchors_": false
}
