[gd_scene load_steps=2 format=2]

[ext_resource path="res://mesh/interior/book/book.obj" type="ArrayMesh" id=1]

[node name="Book" type="Spatial"]

[node name="MeshInstance" type="MeshInstance" parent="."]
mesh = ExtResource( 1 )
material/0 = null
material/1 = null
material/2 = null
