[gd_scene load_steps=6 format=3 uid="uid://1xvnhnrvt1v6"]

[ext_resource type="PackedScene" uid="uid://c38hkfgjd3q60" path="res://ui/hud.tscn" id="1_0ac6s"]
[ext_resource type="Script" path="res://levels/mainlevel.gd" id="1_ls7mv"]
[ext_resource type="PackedScene" uid="uid://ca8sokhpucg8k" path="res://world/bridge_hideout.tscn" id="2_bbq1l"]
[ext_resource type="PackedScene" uid="uid://calrxsf48cdam" path="res://player/player.tscn" id="4_u01bb"]
[ext_resource type="PackedScene" uid="uid://o84vra7ku7s3" path="res://world/town/town.tscn" id="5_46hqv"]

[node name="mainlevel" type="Node3D"]
script = ExtResource("1_ls7mv")

[node name="bridge_hideout" parent="." instance=ExtResource("2_bbq1l")]
transform = Transform3D(-4.37114e-08, 0, 1, 0, 1, 0, -1, 0, -4.37114e-08, -27, 4, 0)

[node name="Hud" parent="." instance=ExtResource("1_0ac6s")]

[node name="current" type="Node3D" parent="."]

[node name="player" parent="." instance=ExtResource("4_u01bb")]
transform = Transform3D(1, 0, 0, 0, 1, 0, 0, 0, 1, -22, 0, 0)

[node name="Town" parent="." instance=ExtResource("5_46hqv")]
