# Blender 3.3.1 MTL File: 'Medieval.blend'
# www.blender.org

newmtl Wood
Ns 0.000000
Ka 1.000000 1.000000 1.000000
Kd 0.023181 0.007899 0.000858
Ks 0.254545 0.254545 0.254545
Ke 0.000000 0.000000 0.000000
Ni 1.450000
d 1.000000
illum 2

newmtl WoodPainted
Ns 250.000000
Ka 1.000000 1.000000 1.000000
Kd 0.486735 0.343191 0.170553
Ks 0.545455 0.545455 0.545455
Ke 0.000000 0.000000 0.000000
Ni 1.450000
d 1.000000
illum 2
