[gd_scene load_steps=4 format=2]

[ext_resource path="res://controller/mousegimbal/MouseGimbal.tscn" type="PackedScene" id=1]
[ext_resource path="res://controller/3rdperson/3rdPersonController.gd" type="Script" id=2]
[ext_resource path="res://Actor/Person/Person.tscn" type="PackedScene" id=4]


[node name="3rdPersonController" type="Spatial"]
script = ExtResource( 2 )

[node name="Person" parent="." instance=ExtResource( 4 )]

[node name="MouseGimbal" parent="Person" instance=ExtResource( 1 )]

[node name="CameraRoot" type="Spatial" parent="Person"]

[node name="Camera" type="Camera" parent="Person/CameraRoot"]
transform = Transform( 1, 0, 0, 0, 1, 0, 0, 0, 1, 0, 1.54009, 4.15779 )
[connection signal="rotated" from="Person/MouseGimbal" to="." method="_on_MouseGimbal_rotated"]
