[gd_scene load_steps=7 format=2]

[ext_resource path="res://world/foliage/Grass.gd" type="Script" id=1]
[ext_resource path="res://shader/Grass.shader" type="Shader" id=2]
[ext_resource path="res://script/class/VolatileMultiMesh.gd" type="Script" id=3]

[sub_resource type="ShaderMaterial" id=1]
shader = ExtResource( 2 )
shader_param/wind_scale = 1.2
shader_param/wind_speed = 1.0
shader_param/deg_sway_pitch_max = 60.0
shader_param/deg_sway_yaw_max = 45.0
shader_param/sway_randomness = Vector2( 0.1, 0.2 )
shader_param/specular_level = 0.569
shader_param/wind_direction = Vector3( 0, 0, -1 )
shader_param/color_top = Color( 0.188235, 1, 0.160784, 1 )
shader_param/color_bot = Color( 0.243137, 0.352941, 0.184314, 1 )
shader_param/rand_pitch = 0.231
shader_param/rand_yaw = 0.16

[sub_resource type="ArrayMesh" id=4]
custom_aabb = AABB( -0.5, 0, -0.5, 0.5, 1, 1 )
surfaces/0 = {
"aabb": AABB( -0.5, 0, 0, 1, 1, 1e-05 ),
"array_data": PoolByteArray( 0, 0, 0, 191, 0, 0, 0, 0, 0, 0, 0, 0, 0, 0, 0, 0, 0, 0, 0, 63, 0, 0, 0, 0, 0, 0, 0, 0, 0, 0, 0, 0, 0, 0, 0, 0, 0, 0, 128, 63, 0, 0, 0, 0, 0, 60, 0, 60 ),
"array_index_data": PoolByteArray(  ),
"blend_shape_data": [  ],
"format": 97313,
"index_count": 0,
"primitive": 4,
"skeleton_aabb": [  ],
"vertex_count": 3
}

[sub_resource type="MultiMesh" id=3]
transform_format = 1
custom_data_format = 2
instance_count = 10000
mesh = SubResource( 4 )
script = ExtResource( 3 )
delete_mesh_data = true

[node name="Grass" type="MultiMeshInstance"]
material_override = SubResource( 1 )
multimesh = SubResource( 3 )
script = ExtResource( 1 )
patch_size = 1.0
count = 10000
height_min_max = Vector2( 0.04, 0.12 )

