[gd_scene load_steps=3 format=2]

[ext_resource path="res://Mesh/Person/PersonBody.tscn" type="PackedScene" id=1]

[sub_resource type="BoxShape" id=3]
extents = Vector3( 0.05, 0.1, 0.05 )

[node name="PersonMesh" type="Spatial"]

[node name="RigidBody" type="RigidBody" parent="."]
linear_damp = 0.96
angular_damp = 0.96

[node name="CollisionShape" type="CollisionShape" parent="RigidBody"]
transform = Transform( 1, 0, 0, 0, 1, 0, 0, 0, 1, 0.000523627, -0.000712857, 0.000486791 )
shape = SubResource( 3 )

[node name="PersonBody" parent="RigidBody" instance=ExtResource( 1 )]
