[gd_scene load_steps=4 format=2]

[ext_resource path="res://Mesh/Person/Dead/DeadPersonBody.tscn" type="PackedScene" id=1]
[ext_resource path="res://Mesh/Person/Dead/DeadPersonHead.tscn" type="PackedScene" id=2]
[ext_resource path="res://Mesh/Person/Dead/DeadPersonMesh.gd" type="Script" id=3]

[node name="DeadPersonMesh" type="Spatial"]
script = ExtResource( 3 )

[node name="PinJoint" type="PinJoint" parent="."]
transform = Transform( 1, 0, 0, 0, 1, 0, 0, 0, 1, 0, 0.217308, 0 )
nodes/node_a = NodePath("../DeadPersonBody/RigidBody")
nodes/node_b = NodePath("../DeadPersonHead/RigidBody")
collision/exclude_nodes = false

[node name="DeadPersonBody" parent="." instance=ExtResource( 1 )]
transform = Transform( 1, 0, 0, 0, 1, 0, 0, 0, 1, 0, 0.108, 0 )

[node name="DeadPersonHead" parent="." instance=ExtResource( 2 )]
transform = Transform( 1, 0, 0, 0, 1, 0, 0, 0, 1, 0, 0.266, 0 )

[editable path="DeadPersonBody"]

[editable path="DeadPersonHead"]
