[gd_scene load_steps=4 format=2]

[ext_resource path="res://Vertex shaders/Terrain.tres" type="Material" id=1]
[ext_resource path="res://Vertex shaders/Mesh.gd" type="Script" id=2]

[sub_resource type="PlaneMesh" id=1]
subdivide_width = 32
subdivide_depth = 32

[node name="Mesh32" type="MeshInstance"]
mesh = SubResource( 1 )
material/0 = ExtResource( 1 )
script = ExtResource( 2 )
__meta__ = {
"_edit_lock_": true
}
