[gd_scene load_steps=4 format=2]

[ext_resource path="res://mesh/spacecrap/rocks/gem.obj" type="ArrayMesh" id=1]
[ext_resource path="res://material/rock/Ruby.tres" type="Material" id=2]

[sub_resource type="ConvexPolygonShape" id=1]
points = PoolVector3Array( 0.293147, 0.254199, 0.000603, 0.375041, 0, 0.272479, 0.090012, 0.254199, 0.278983, -0.236806, 0.254199, -0.172793, -0.143249, 0, -0.440885, 0.091158, 0.254199, -0.278611, 0.091158, 0.254199, -0.278611, 0.375041, 0, -0.272479, 0.293147, 0.254199, 0.000603, 0.375041, 0, -0.272479, 0.375041, 0, 0.272479, 0.293147, 0.254199, 0.000603, 0.375041, 0, 0.272479, -0.143249, 0, 0.440885, 0.090012, 0.254199, 0.278983, -0.143249, 0, 0.440885, -0.463577, 0, 0, -0.237515, 0.254199, 0.171818, -0.463577, 0, 0, -0.143249, 0, -0.440885, -0.236806, 0.254199, -0.172793, -0.143249, 0, -0.440885, 0.375041, 0, -0.272479, 0.091158, 0.254199, -0.278611, -0.237515, 0.254199, 0.171818, -0.463577, 0, 0, -0.236806, 0.254199, -0.172793, 0.293147, 0.254199, 0.000603, 0.090012, 0.254199, 0.278983, 0.091158, 0.254199, -0.278611, -0.236806, 0.254199, -0.172793, -0.237515, 0.254199, 0.171818, 0.090012, 0.254199, 0.278983, -0.143249, 0, 0.440885, -0.237515, 0.254199, 0.171818, 0.090012, -0.254199, 0.278983, 0.375041, 0, 0.272479, 0.293147, -0.254199, 0.000603, 0.091158, -0.254199, -0.278611, -0.143249, 0, -0.440885, -0.236806, -0.254199, -0.172793, 0.293147, -0.254199, 0.000603, 0.375041, 0, -0.272479, 0.091158, -0.254199, -0.278611, 0.293147, -0.254199, 0.000603, 0.375041, 0, 0.272479, 0.375041, 0, -0.272479, 0.090012, -0.254199, 0.278983, -0.143249, 0, 0.440885, 0.375041, 0, 0.272479, -0.237515, -0.254199, 0.171818, -0.463577, 0, 0, -0.143249, 0, 0.440885, -0.236806, -0.254199, -0.172793, -0.143249, 0, -0.440885, -0.463577, 0, 0, 0.091158, -0.254199, -0.278611, 0.375041, 0, -0.272479, -0.143249, 0, -0.440885, -0.236806, -0.254199, -0.172793, -0.463577, 0, 0, -0.237515, -0.254199, 0.171818, 0.090012, -0.254199, 0.278983, 0.293147, -0.254199, 0.000603, -0.237515, -0.254199, 0.171818, -0.236806, -0.254199, -0.172793, 0.091158, -0.254199, -0.278611, -0.237515, -0.254199, 0.171818, -0.143249, 0, 0.440885, 0.090012, -0.254199, 0.278983 )

[node name="Ruby" type="RigidBody" groups=["pickup_enabled"]]

[node name="MeshInstance" type="MeshInstance" parent="."]
transform = Transform( 0.5, 0, 0, 0, 0.5, 0, 0, 0, 0.5, 0, 0, 0 )
mesh = ExtResource( 1 )
material/0 = ExtResource( 2 )

[node name="CollisionShape" type="CollisionShape" parent="."]
transform = Transform( 0.5, 0, 0, 0, 0.5, 0, 0, 0, 0.5, 0, 0, 0 )
shape = SubResource( 1 )
