[gd_scene load_steps=2 format=2]

[ext_resource path="res://UI/ValueSlider.gd" type="Script" id=1]

[node name="ValueSlider" type="VBoxContainer"]
anchor_left = 0.5
anchor_top = 0.5
anchor_right = 0.5
anchor_bottom = 0.5
margin_left = -512.0
margin_top = -300.0
margin_right = -278.0
margin_bottom = -266.0
script = ExtResource( 1 )
__meta__ = {
"_edit_use_anchors_": false
}

[node name="VBox" type="VBoxContainer" parent="."]
margin_right = 234.0
margin_bottom = 34.0
__meta__ = {
"_edit_use_anchors_": false
}

[node name="HSplit" type="HSplitContainer" parent="VBox"]
margin_right = 234.0
margin_bottom = 14.0
grow_horizontal = 2
grow_vertical = 2

[node name="Label" type="Label" parent="VBox/HSplit"]
margin_right = 34.0
margin_bottom = 14.0
text = "Label"

[node name="Value" type="Label" parent="VBox/HSplit"]
margin_left = 46.0
margin_right = 234.0
margin_bottom = 14.0
text = "0"
__meta__ = {
"_edit_use_anchors_": false
}

[node name="Range" type="HSlider" parent="VBox"]
margin_top = 18.0
margin_right = 234.0
margin_bottom = 34.0
grow_horizontal = 2
grow_vertical = 2
__meta__ = {
"_edit_use_anchors_": false
}
[connection signal="value_changed" from="VBox/Range" to="." method="_on_Range_value_changed"]
